<svg width="793" height="618" viewBox="0 0 793 618" fill="none" xmlns="http://www.w3.org/2000/svg">
<path fill-rule="evenodd" clip-rule="evenodd" d="M416.294 464.552C417.383 465.288 418.107 466.038 418.453 466.78L418.499 466.879L418.903 516.585C423.902 517.998 427.284 519.321 429.453 520.543C430.556 521.165 431.367 521.772 431.917 522.368C432.467 522.966 432.78 523.578 432.829 524.199C432.837 524.297 432.837 524.392 432.831 524.486V577.362L435.5 580.298V602.816L435.204 602.948C425.742 607.176 410.979 610.559 396.41 613.072C381.827 615.587 367.388 617.239 358.542 617.99L358.422 618L349.901 614.491H340.43L340.363 614.472C331.847 612.051 318.947 607.743 307.917 602.683C302.403 600.154 297.338 597.429 293.518 594.647C291.608 593.256 289.996 591.842 288.794 590.42C287.594 589 286.78 587.548 286.508 586.082L286.5 586.037V577.692L289.305 576.192V518.555C289.163 517.962 289.349 517.412 289.719 516.944C290.092 516.473 290.668 516.059 291.355 515.69C292.733 514.948 294.72 514.302 296.945 513.75C301.242 512.684 306.563 511.934 310.5 511.538V458.528L310.963 458.493C350.981 455.491 377.185 456.24 393.689 458.371C401.94 459.436 407.783 460.849 411.722 462.32C413.691 463.055 415.197 463.81 416.294 464.552ZM310.5 512.543C306.6 512.939 301.383 513.679 297.186 514.721C294.982 515.268 293.094 515.889 291.828 516.57C291.193 516.912 290.754 517.248 290.503 517.565C290.265 517.866 290.219 518.116 290.286 518.355C290.344 518.558 290.5 518.816 290.836 519.121C291.869 520.06 294.19 521.323 297.36 522.763C300.505 524.191 304.419 525.765 308.577 527.336C316.854 530.464 326.073 533.572 332.07 535.489L347.542 534.99L350.024 535.486L358.75 534.584C350.836 533.936 340.973 532.798 332.242 531.107C326.745 530.043 321.676 528.754 317.82 527.222C315.893 526.456 314.249 525.621 313.002 524.71C311.762 523.803 310.866 522.784 310.521 521.635L310.5 521.565V512.543ZM364.988 532.945L365.004 534.942L350.5 536.442V586.333L367.274 570.517L420.194 563.461L431.831 576.262V526.226C431.507 526.507 431.125 526.76 430.715 526.987C429.519 527.649 427.976 528.148 426.618 528.477L426.575 528.488L418.07 529.019L418.005 528.562C417.777 526.968 416.995 526.035 416.059 525.483C415.121 524.931 413.999 524.747 413.063 524.739C407.267 526.242 398.513 527.302 390.225 527.926C381.938 528.55 374.066 528.741 370.017 528.493C368.204 528.735 366.793 529.799 365.906 531.033C365.459 531.655 365.154 532.308 364.999 532.899C364.995 532.915 364.991 532.93 364.988 532.945ZM431.831 524.26V524.442C431.808 524.673 431.697 524.914 431.477 525.17C431.2 525.493 430.775 525.811 430.231 526.112C429.158 526.705 427.732 527.175 426.425 527.495L418.996 527.96L418.912 517.627C423.724 519.001 426.933 520.271 428.962 521.414C430.014 522.007 430.728 522.554 431.181 523.046C431.626 523.528 431.8 523.933 431.831 524.26ZM417.979 525.867L417.507 467.834C416.803 468.157 415.871 468.456 414.779 468.736C413.193 469.143 411.203 469.528 408.938 469.887C404.405 470.606 398.736 471.229 392.918 471.728C381.677 472.691 369.83 473.193 364.504 473.012L364.969 530.629C365.01 530.569 365.051 530.509 365.094 530.45C366.116 529.027 367.773 527.766 369.938 527.495L369.984 527.489L370.031 527.492C373.997 527.74 381.845 527.554 390.15 526.929C398.457 526.304 407.17 525.243 412.874 523.755L412.936 523.739H413C414.052 523.739 415.4 523.935 416.566 524.622C417.095 524.933 417.579 525.342 417.979 525.867ZM363.987 532.833L363.504 472.968C333.373 471.487 317.142 464.096 311.5 460.006V521.415C311.771 522.244 312.465 523.078 313.593 523.902C314.745 524.745 316.304 525.543 318.189 526.292C321.96 527.791 326.959 529.065 332.433 530.126C343.1 532.192 355.486 533.43 363.888 533.953C363.864 533.596 363.902 533.215 363.987 532.833ZM312.361 459.392C318.056 463.381 334.17 470.592 364.023 471.992C368.988 472.225 381.211 471.727 392.832 470.731C398.639 470.234 404.282 469.613 408.781 468.899C411.031 468.542 412.987 468.164 414.53 467.767C415.777 467.447 416.714 467.126 417.318 466.816C417.014 466.39 416.507 465.903 415.734 465.38C414.722 464.696 413.293 463.974 411.372 463.257C407.53 461.822 401.768 460.422 393.561 459.362C377.331 457.267 351.597 456.508 312.361 459.392ZM350.5 588.238V613.657L358 616.745V591.326L350.5 588.238ZM359 591.099V616.947C367.862 616.177 381.984 614.545 396.24 612.086C410.651 609.6 425.15 606.278 434.5 602.166V580.685L419.806 564.522L367.842 571.45L359 591.099ZM366.01 573.083L358.243 590.345L350.906 587.324L366.01 573.083ZM349.5 613.491V603.208L341 606.34V613.491H349.5ZM340 613.328C331.519 610.886 319.032 606.682 308.333 601.774C302.847 599.258 297.849 596.564 294.107 593.839C292.236 592.476 290.691 591.115 289.558 589.774C288.435 588.447 287.737 587.166 287.5 585.944V578.291L290.305 576.791V519.986C291.523 521.025 293.919 522.298 296.946 523.673C300.12 525.114 304.056 526.697 308.223 528.272C316.399 531.361 325.488 534.43 331.5 536.356V602.826L340 606.326V613.328ZM340.51 605.455L349.5 602.143V536.401L347.458 535.993L332.5 536.475V602.157L340.51 605.455Z" fill="#C4CFD2"/>
<path fill-rule="evenodd" clip-rule="evenodd" d="M371.321 482.22C371.722 481.685 372 480.9 372 479.991C372 479.082 371.722 478.298 371.321 477.763C370.92 477.228 370.443 476.991 370 476.991C369.557 476.991 369.08 477.228 368.679 477.763C368.278 478.298 368 479.082 368 479.991C368 480.9 368.278 481.685 368.679 482.22C369.08 482.754 369.557 482.991 370 482.991C370.443 482.991 370.92 482.754 371.321 482.22ZM370 483.991C371.657 483.991 373 482.2 373 479.991C373 477.782 371.657 475.991 370 475.991C368.343 475.991 367 477.782 367 479.991C367 482.2 368.343 483.991 370 483.991Z" fill="#C4CFD2"/>
<path fill-rule="evenodd" clip-rule="evenodd" d="M370.495 479.248C370.313 478.159 369.686 477.309 369.175 476.871L369.826 476.112C370.482 476.674 371.254 477.724 371.481 479.084C371.712 480.471 371.366 482.119 369.877 483.82L369.124 483.162C370.435 481.664 370.672 480.312 370.495 479.248Z" fill="#C4CFD2"/>
<path fill-rule="evenodd" clip-rule="evenodd" d="M371.321 524.22C371.722 523.685 372 522.9 372 521.991C372 521.082 371.722 520.298 371.321 519.763C370.92 519.228 370.443 518.991 370 518.991C369.557 518.991 369.08 519.228 368.679 519.763C368.278 520.298 368 521.082 368 521.991C368 522.9 368.278 523.685 368.679 524.22C369.08 524.754 369.557 524.991 370 524.991C370.443 524.991 370.92 524.754 371.321 524.22ZM370 525.991C371.657 525.991 373 524.2 373 521.991C373 519.782 371.657 517.991 370 517.991C368.343 517.991 367 519.782 367 521.991C367 524.2 368.343 525.991 370 525.991Z" fill="#C4CFD2"/>
<path fill-rule="evenodd" clip-rule="evenodd" d="M370.495 521.248C370.313 520.159 369.686 519.309 369.175 518.871L369.826 518.112C370.482 518.674 371.254 519.724 371.481 521.084C371.712 522.471 371.366 524.119 369.877 525.82L369.124 525.162C370.435 523.664 370.672 522.312 370.495 521.248Z" fill="#C4CFD2"/>
<path fill-rule="evenodd" clip-rule="evenodd" d="M371.321 504.22C371.722 503.685 372 502.9 372 501.991C372 501.082 371.722 500.298 371.321 499.763C370.92 499.228 370.443 498.991 370 498.991C369.557 498.991 369.08 499.228 368.679 499.763C368.278 500.298 368 501.082 368 501.991C368 502.9 368.278 503.685 368.679 504.22C369.08 504.754 369.557 504.991 370 504.991C370.443 504.991 370.92 504.754 371.321 504.22ZM370 505.991C371.657 505.991 373 504.2 373 501.991C373 499.782 371.657 497.991 370 497.991C368.343 497.991 367 499.782 367 501.991C367 504.2 368.343 505.991 370 505.991Z" fill="#C4CFD2"/>
<path fill-rule="evenodd" clip-rule="evenodd" d="M370.495 501.248C370.313 500.159 369.686 499.309 369.175 498.871L369.826 498.112C370.482 498.674 371.254 499.724 371.481 501.084C371.712 502.471 371.366 504.119 369.877 505.82L369.124 505.162C370.435 503.664 370.672 502.312 370.495 501.248Z" fill="#C4CFD2"/>
<path fill-rule="evenodd" clip-rule="evenodd" d="M414.321 498.22C414.722 497.685 415 496.9 415 495.991C415 495.082 414.722 494.298 414.321 493.763C413.92 493.228 413.443 492.991 413 492.991C412.557 492.991 412.08 493.228 411.679 493.763C411.278 494.298 411 495.082 411 495.991C411 496.9 411.278 497.685 411.679 498.22C412.08 498.754 412.557 498.991 413 498.991C413.443 498.991 413.92 498.754 414.321 498.22ZM413 499.991C414.657 499.991 416 498.2 416 495.991C416 493.782 414.657 491.991 413 491.991C411.343 491.991 410 493.782 410 495.991C410 498.2 411.343 499.991 413 499.991Z" fill="#C4CFD2"/>
<path fill-rule="evenodd" clip-rule="evenodd" d="M413.495 495.248C413.313 494.159 412.686 493.309 412.175 492.871L412.826 492.112C413.482 492.674 414.254 493.724 414.481 495.084C414.712 496.471 414.366 498.119 412.877 499.82L412.124 499.162C413.435 497.664 413.672 496.312 413.495 495.248Z" fill="#C4CFD2"/>
<path fill-rule="evenodd" clip-rule="evenodd" d="M414.321 519.22C414.722 518.685 415 517.9 415 516.991C415 516.082 414.722 515.298 414.321 514.763C413.92 514.228 413.443 513.991 413 513.991C412.557 513.991 412.08 514.228 411.679 514.763C411.278 515.298 411 516.082 411 516.991C411 517.9 411.278 518.685 411.679 519.22C412.08 519.754 412.557 519.991 413 519.991C413.443 519.991 413.92 519.754 414.321 519.22ZM413 520.991C414.657 520.991 416 519.2 416 516.991C416 514.782 414.657 512.991 413 512.991C411.343 512.991 410 514.782 410 516.991C410 519.2 411.343 520.991 413 520.991Z" fill="#C4CFD2"/>
<path fill-rule="evenodd" clip-rule="evenodd" d="M413.495 516.248C413.313 515.159 412.686 514.309 412.175 513.871L412.826 513.112C413.482 513.674 414.254 514.724 414.481 516.084C414.712 517.471 414.366 519.119 412.877 520.82L412.124 520.162C413.435 518.664 413.672 517.312 413.495 516.248Z" fill="#C4CFD2"/>
<path fill-rule="evenodd" clip-rule="evenodd" d="M386.321 481.22C386.722 480.685 387 479.9 387 478.991C387 478.082 386.722 477.298 386.321 476.763C385.92 476.228 385.443 475.991 385 475.991C384.557 475.991 384.08 476.228 383.679 476.763C383.278 477.298 383 478.082 383 478.991C383 479.9 383.278 480.685 383.679 481.22C384.08 481.754 384.557 481.991 385 481.991C385.443 481.991 385.92 481.754 386.321 481.22ZM385 482.991C386.657 482.991 388 481.2 388 478.991C388 476.782 386.657 474.991 385 474.991C383.343 474.991 382 476.782 382 478.991C382 481.2 383.343 482.991 385 482.991Z" fill="#C4CFD2"/>
<path fill-rule="evenodd" clip-rule="evenodd" d="M385.495 478.248C385.313 477.159 384.686 476.309 384.175 475.871L384.826 475.112C385.482 475.674 386.254 476.724 386.481 478.084C386.712 479.471 386.366 481.119 384.877 482.82L384.124 482.162C385.435 480.664 385.672 479.312 385.495 478.248Z" fill="#C4CFD2"/>
<path fill-rule="evenodd" clip-rule="evenodd" d="M386.321 524.22C386.722 523.685 387 522.9 387 521.991C387 521.082 386.722 520.298 386.321 519.763C385.92 519.228 385.443 518.991 385 518.991C384.557 518.991 384.08 519.228 383.679 519.763C383.278 520.298 383 521.082 383 521.991C383 522.9 383.278 523.685 383.679 524.22C384.08 524.754 384.557 524.991 385 524.991C385.443 524.991 385.92 524.754 386.321 524.22ZM385 525.991C386.657 525.991 388 524.2 388 521.991C388 519.782 386.657 517.991 385 517.991C383.343 517.991 382 519.782 382 521.991C382 524.2 383.343 525.991 385 525.991Z" fill="#C4CFD2"/>
<path fill-rule="evenodd" clip-rule="evenodd" d="M385.495 521.248C385.313 520.159 384.686 519.309 384.175 518.871L384.826 518.112C385.482 518.674 386.254 519.724 386.481 521.084C386.712 522.471 386.366 524.119 384.877 525.82L384.124 525.162C385.435 523.664 385.672 522.312 385.495 521.248Z" fill="#C4CFD2"/>
<path fill-rule="evenodd" clip-rule="evenodd" d="M401.321 479.22C401.722 478.685 402 477.9 402 476.991C402 476.082 401.722 475.298 401.321 474.763C400.92 474.228 400.443 473.991 400 473.991C399.557 473.991 399.08 474.228 398.679 474.763C398.278 475.298 398 476.082 398 476.991C398 477.9 398.278 478.685 398.679 479.22C399.08 479.754 399.557 479.991 400 479.991C400.443 479.991 400.92 479.754 401.321 479.22ZM400 480.991C401.657 480.991 403 479.2 403 476.991C403 474.782 401.657 472.991 400 472.991C398.343 472.991 397 474.782 397 476.991C397 479.2 398.343 480.991 400 480.991Z" fill="#C4CFD2"/>
<path fill-rule="evenodd" clip-rule="evenodd" d="M400.495 476.248C400.313 475.159 399.686 474.309 399.175 473.871L399.826 473.112C400.482 473.674 401.254 474.724 401.481 476.084C401.712 477.471 401.366 479.119 399.877 480.82L399.124 480.162C400.435 478.664 400.672 477.312 400.495 476.248Z" fill="#C4CFD2"/>
<path fill-rule="evenodd" clip-rule="evenodd" d="M401.321 522.22C401.722 521.685 402 520.9 402 519.991C402 519.082 401.722 518.298 401.321 517.763C400.92 517.228 400.443 516.991 400 516.991C399.557 516.991 399.08 517.228 398.679 517.763C398.278 518.298 398 519.082 398 519.991C398 520.9 398.278 521.685 398.679 522.22C399.08 522.754 399.557 522.991 400 522.991C400.443 522.991 400.92 522.754 401.321 522.22ZM400 523.991C401.657 523.991 403 522.2 403 519.991C403 517.782 401.657 515.991 400 515.991C398.343 515.991 397 517.782 397 519.991C397 522.2 398.343 523.991 400 523.991Z" fill="#C4CFD2"/>
<path fill-rule="evenodd" clip-rule="evenodd" d="M400.495 519.248C400.313 518.159 399.686 517.309 399.175 516.871L399.826 516.112C400.482 516.674 401.254 517.724 401.481 519.084C401.712 520.471 401.366 522.119 399.877 523.82L399.124 523.162C400.435 521.664 400.672 520.312 400.495 519.248Z" fill="#C4CFD2"/>
<path fill-rule="evenodd" clip-rule="evenodd" d="M414.321 477.22C414.722 476.685 415 475.9 415 474.991C415 474.082 414.722 473.298 414.321 472.763C413.92 472.228 413.443 471.991 413 471.991C412.557 471.991 412.08 472.228 411.679 472.763C411.278 473.298 411 474.082 411 474.991C411 475.9 411.278 476.685 411.679 477.22C412.08 477.754 412.557 477.991 413 477.991C413.443 477.991 413.92 477.754 414.321 477.22ZM413 478.991C414.657 478.991 416 477.2 416 474.991C416 472.782 414.657 470.991 413 470.991C411.343 470.991 410 472.782 410 474.991C410 477.2 411.343 478.991 413 478.991Z" fill="#C4CFD2"/>
<path fill-rule="evenodd" clip-rule="evenodd" d="M413.495 474.248C413.313 473.159 412.686 472.309 412.175 471.871L412.826 471.112C413.482 471.674 414.254 472.724 414.481 474.084C414.712 475.471 414.366 477.119 412.877 478.82L412.124 478.162C413.435 476.664 413.672 475.312 413.495 474.248Z" fill="#C4CFD2"/>
<path fill-rule="evenodd" clip-rule="evenodd" d="M51 404.25V392.5H52V404.132L81.5 413.321V402.5H82.5V413.555L90 414.438V405H91V414.48L116.566 413.497L123.147 415.522L123.025 416.499L93 417.976V422.978L139.571 420.997L145.658 423.026L145.548 423.998L82.9366 430.008L49 417.852V405.75L51 404.25ZM51.5954 405.053L50.5804 405.815L82.1447 415.708L81.6241 414.407L51.5954 405.053ZM82.7764 414.595L83.3522 416.034L91.3616 416.877L90.2378 415.473L82.7764 414.595ZM91.5095 415.462L92.7308 416.988L120.131 415.64L116.434 414.503L91.5095 415.462ZM92 417.95L83.5 417.055V428.593L92 423.224V417.95ZM92.6544 423.994L85.042 428.802L143.102 423.228L139.429 422.003L92.6544 423.994ZM82.5 428.79L50 417.148V406.681L82.5 416.867V428.79Z" fill="#C4CFD2"/>
<path d="M691.5 218L752.5 219L751.5 341.5L749.5 341.562V379.5L658 386.5L524.5 370L474.5 360V325L655.5 344.562L658 344.5V330L663.5 328.5L674.5 299V295L691 250L691.5 218Z" fill="white"/>
<path fill-rule="evenodd" clip-rule="evenodd" d="M691.008 217.492L753.004 218.508L751.996 341.985L750 342.047V379.963L657.988 387.002L524.42 370.494L474 360.41V324.443L655.521 344.062L657.5 344.012V329.618L663.121 328.085L674 298.91V294.911L690.501 249.908L691.008 217.492ZM657.5 345.013L655.479 345.063L475 325.557V359.59L524.58 369.506L657.5 385.934V345.013ZM658.5 385.96L749 379.037V342.079L658.5 344.984V385.96ZM658.5 343.984L749.484 341.063L751.004 341.015L751.996 219.492L691.992 218.508L691.499 250.093L675 295.089V299.09L663.879 328.915L658.5 330.382V343.984Z" fill="#C4CFD2"/>
<path d="M740 330L670 332L670.061 329L670.061 232.5L738 234H741L740 330Z" fill="white"/>
<path fill-rule="evenodd" clip-rule="evenodd" d="M669.561 231.989L738.005 233.5H741.505L740.495 330.486L669.489 332.515L669.561 329L669.561 231.989ZM670.551 329.486L670.51 331.485L739.505 329.514L740.495 234.5H738.495L737.495 327.485L670.551 329.486ZM737.495 234.489L670.561 233.011V328.485L736.505 326.514L737.495 234.489Z" fill="#C4CFD2"/>
<path fill-rule="evenodd" clip-rule="evenodd" d="M701.201 241.893L680.638 241.295C675.61 241.149 671.438 245.153 671.377 250.183L670.513 321.955L700.947 320.645C705.741 320.438 709.53 316.507 709.559 311.709L709.939 250.945C709.97 246.055 706.089 242.035 701.201 241.893ZM700.99 321.644C706.316 321.414 710.526 317.047 710.559 311.715L710.939 250.952C710.973 245.518 706.661 241.051 701.23 240.893L680.667 240.296C675.08 240.133 670.445 244.582 670.377 250.171L669.5 323L700.99 321.644Z" fill="#C4CFD2"/>
<path d="M698.591 253.113C681.052 251.721 674.859 267.687 674.091 280.603C673.416 291.94 676.18 310.52 693.923 311.928C711.666 313.337 717.326 293.952 717.938 284.083C718.797 274.34 716.13 254.505 698.591 253.113Z" fill="white"/>
<path fill-rule="evenodd" clip-rule="evenodd" d="M680.46 261.781C676.697 267.11 674.971 274.228 674.59 280.632C674.255 286.26 674.778 293.648 677.555 299.783C680.32 305.888 685.305 310.742 693.962 311.43C702.601 312.115 708.293 307.759 711.931 301.969C715.583 296.156 717.137 288.931 717.439 284.052L717.44 284.039L717.44 284.039C717.865 279.223 717.415 271.918 714.705 265.665C712.006 259.436 707.09 254.289 698.552 253.611C689.972 252.93 684.204 256.481 680.46 261.781ZM679.644 261.204C683.574 255.64 689.672 251.903 698.631 252.615C707.632 253.329 712.818 258.796 715.623 265.268C718.416 271.714 718.87 279.193 718.437 284.121C718.126 289.111 716.543 296.508 712.778 302.501C708.997 308.518 702.987 313.149 693.883 312.426C684.797 311.705 679.529 306.566 676.644 300.195C673.773 293.854 673.252 286.283 673.592 280.573C673.979 274.062 675.734 266.739 679.644 261.204Z" fill="#C4CFD2"/>
<path fill-rule="evenodd" clip-rule="evenodd" d="M680.312 264.362C676.563 269.38 674.834 275.983 674.514 281.583C674.233 286.503 674.88 292.899 677.724 298.217C680.55 303.499 685.553 307.745 694.086 308.43C701.995 308.288 707.195 304.206 710.504 299.069C713.828 293.907 715.226 287.697 715.482 283.431L715.483 283.423L715.483 283.416C715.859 279.209 715.364 273.243 712.851 267.96C710.352 262.705 705.859 258.125 698.196 256.593C689.768 255.933 684.038 259.375 680.312 264.362ZM679.511 263.763C683.43 258.517 689.492 254.898 698.304 255.598L698.333 255.6L698.362 255.606C706.398 257.203 711.137 262.028 713.754 267.531C716.36 273.01 716.866 279.16 716.48 283.498C716.216 287.889 714.782 294.273 711.345 299.61C707.893 304.969 702.405 309.29 694.079 309.43L694.055 309.431L694.031 309.429C685.122 308.721 679.82 304.256 676.842 298.689C673.881 293.152 673.228 286.552 673.515 281.526C673.843 275.794 675.611 268.983 679.511 263.763Z" fill="#C4CFD2"/>
<path d="M708.583 283.027C708.173 294.602 700.456 303.874 691.348 303.735C682.24 303.596 675.19 294.1 675.6 282.525C676.011 270.949 683.727 261.678 692.835 261.817C701.943 261.955 708.994 271.451 708.583 283.027Z" fill="#002E6D"/>
<path fill-rule="evenodd" clip-rule="evenodd" d="M696.192 286.67C697.448 281.249 695.203 276.879 693.734 275.391L694.357 274.609C696.054 276.327 698.457 281.095 697.101 286.949L696.192 286.67Z" fill="white"/>
<path fill-rule="evenodd" clip-rule="evenodd" d="M695.385 289.392C695.521 289.09 695.619 288.769 695.761 288.137L696.672 288.409C696.524 289.065 696.406 289.475 696.224 289.879C696.074 290.213 695.882 290.537 695.615 290.987C695.571 291.061 695.525 291.139 695.477 291.22L694.693 290.627C694.743 290.542 694.79 290.463 694.834 290.389C695.106 289.93 695.262 289.666 695.385 289.392Z" fill="white"/>
<path d="M655.5 348L531 338.5L523.137 320.5L522.017 318.5L520.616 316L508.293 294L506.612 291L469.361 224.5L466 218.5L724.5 205.5H758L763.5 211.5H785.5L792 217.5V250.5L771.5 295V299L760 325H757H752L752.5 223.5V219L691.375 218L691 218.5V250.5L674.5 295V299L663.5 328.5L658 330V347L655.5 348Z" fill="white"/>
<path fill-rule="evenodd" clip-rule="evenodd" d="M724.487 205H758.22L763.72 211H785.696L792.5 217.281V250.61L772 295.11V299.106L760.326 325.5H751.498L752 223.5V219.492L691.622 218.504L691.5 218.667V250.59L675 295.09V299.09L663.879 328.915L658.5 330.382V347.339L655.578 348.507L530.662 338.976L522.689 320.723L465.17 218.041L724.487 205ZM692.363 217.516L753 218.508V222.927L787.856 218.152L784.31 215H762.268L756.768 208.5H726.681L720.677 213.504L695.746 213.005L692.363 217.516ZM788.5 219.073L752.998 223.936L752.503 324.5H756.674L768 298.894V294.389L788.5 250.389V219.073ZM757.768 324.5H759.674L771 298.894V294.89L791.5 250.39V217.719L785.305 212H763.28L757.78 206H724.675L719.675 210H694.25L688.5 217.667V250.59L672 295.09V299.09L661.886 326.399L656 328.36V347.261L657.5 346.661V329.618L663.121 328.085L674 298.91V294.91L690.5 250.41V218.333L695.254 211.995L720.323 212.496L726.319 207.5H757.232L762.732 214H784.69L789.5 218.275V250.611L769 294.611V299.106L757.768 324.5ZM655 347.46V328.466L522.906 319.065L523.585 320.277L531.338 338.024L655 347.46ZM522.321 318.02L655.436 327.494L658.957 326.321L521.506 316.564L522.321 318.02ZM520.921 315.52L661.161 325.475L670.79 299.478L509.161 294.527L520.921 315.52ZM508.591 293.509L671 298.484V295.488L507.477 291.521L508.591 293.509ZM506.909 290.507L671.155 294.491L687.5 250.41V218.016L470.199 224.973L506.909 290.507ZM469.649 223.991L687.744 217.008L693.75 209H719.325L722.978 206.077L466.83 218.959L469.649 223.991Z" fill="#C4CFD2"/>
<path d="M726.5 360L724 363C724 365.761 722.8 371.204 718 370.891L702 371.5C695.2 363.9 700.833 358.333 704.5 356.5L710.5 358C711.3 352 714.833 348.667 716.5 348L748 239.5H753.5L730.5 350.404L726.5 360Z" fill="white"/>
<path fill-rule="evenodd" clip-rule="evenodd" d="M747.625 239H754.114L730.98 350.552L726.933 360.262L724.498 363.183C724.473 364.611 724.152 366.647 723.24 368.336C722.278 370.118 720.625 371.553 717.994 371.392L701.784 372.009L701.627 371.833C698.128 367.922 697.76 364.434 698.86 361.654C699.938 358.929 702.378 357.002 704.276 356.053L704.442 355.97L710.087 357.381C710.551 354.56 711.606 352.334 712.768 350.709C713.899 349.128 715.151 348.088 716.085 347.637L747.625 239ZM716.311 348.647C715.584 349.059 714.556 349.928 713.582 351.291C712.491 352.816 711.487 354.933 711.057 357.645L715.358 358.935L719.867 354.426L716.311 348.647ZM721.098 354.369L726.313 359.15L729.902 350.538L724.688 345.842L721.098 354.369ZM725.064 344.835L730.187 349.449L749.827 254.748L725.064 344.835ZM752.844 240H748.376L717.042 347.927L720.416 353.41L724.027 344.836L752.844 240ZM725.811 360.046L720.515 355.192L715.823 359.885L715.787 359.91C714.997 360.463 713.874 361.491 713.101 362.749C712.328 364.007 711.943 365.424 712.468 366.824C713.393 369.291 715.582 370.005 718.055 370.393C720.195 370.525 721.529 369.4 722.36 367.86C723.208 366.289 723.5 364.328 723.5 363V362.819L725.811 360.046ZM714.704 370.516C713.351 369.905 712.181 368.907 711.532 367.176C710.857 365.376 711.389 363.626 712.249 362.226C712.874 361.208 713.694 360.337 714.432 359.702L710.368 358.482L704.561 357.031C702.822 357.94 700.717 359.678 699.79 362.021C698.871 364.345 699.066 367.38 702.218 370.991L714.704 370.516Z" fill="#C4CFD2"/>
<path d="M476 376L500 379.5V345H512.5L517.5 347.5L527 356.5V368L521.217 375L520 377L525 383L530 389L640 384.5L649 385.5V391.5L523 398L476 391V376Z" fill="white"/>
<path fill-rule="evenodd" clip-rule="evenodd" d="M499.5 344.5H512.618L517.79 347.086L527.5 356.285V368.18L521.626 375.291L520.613 376.955L525.227 382.491L605.481 379.5L605.519 380.5L526.036 383.462L530.226 388.49L640.017 383.999L649.5 385.052V391.975L522.976 398.502L475.5 391.431V375.422L499.5 378.922V344.5ZM501.303 379H517.293L519.604 376.689L520.328 375.5H505.192L501.303 379ZM505.5 374.5H520.982L526.5 367.82V356.715L517.301 348H505.5V374.5ZM505.118 347H515.382L512.382 345.5H502.118L505.118 347ZM500.5 345.809V378.377L504.5 374.777V347.809L500.5 345.809ZM519.966 377.741L517.707 380H509.527L523.233 397.487L648.5 391.025V385.948L639.982 385.001L529.774 389.51L519.966 377.741ZM521.832 397.321L508.257 380H499.964L476.5 376.578V390.569L521.832 397.321Z" fill="#C4CFD2"/>
<path d="M503 241.5V258C502.833 261 505.8 266.9 519 266.5C535.5 266 536.5 272.5 536.5 277V332C536.333 334.667 534.6 340 529 340H507.5H504C499 342.5 499 344.5 499 352C499 358 493.667 362.167 491 363.5H476L338 267C338 264.5 338.8 259.5 350 259.5C361.2 259.5 362.833 248.115 362.5 242.5L327.5 243V229L422.5 227.5H510.5V241.5H503Z" fill="white"/>
<path fill-rule="evenodd" clip-rule="evenodd" d="M422.5 227L511 227V242H503.5V258.014L503.499 258.028C503.426 259.354 504.045 261.422 506.29 263.127C508.539 264.834 512.453 266.198 518.985 266C527.276 265.749 531.817 267.248 534.276 269.507C536.753 271.783 537 274.724 537 277V332.016L536.999 332.031C536.911 333.433 536.416 335.526 535.199 337.285C533.966 339.064 531.989 340.5 529 340.5H504.119C501.739 341.704 500.649 342.744 500.096 344.293C499.806 345.104 499.654 346.081 499.577 347.343C499.5 348.606 499.5 350.12 499.5 352C499.5 355.155 498.097 357.807 496.381 359.824C494.666 361.839 492.611 363.254 491.224 363.947L491.118 364H475.843L337.5 267.261V267C337.5 265.699 337.708 263.657 339.451 261.955C341.185 260.262 344.34 259 350 259C352.711 259 354.814 258.313 356.447 257.218C358.082 256.121 359.274 254.597 360.127 252.883C361.745 249.635 362.124 245.752 362.024 243.007L327 243.507V228.508L422.5 227ZM502.087 340.5H488.047C486.791 340.745 484.906 341.483 483.336 342.908C481.761 344.337 480.5 346.457 480.5 349.5C480.5 355.406 478.235 357.6 476.5 357.949V363H490.88C492.159 362.341 494.044 361.027 495.619 359.176C497.236 357.276 498.5 354.845 498.5 352V351.986C498.5 350.123 498.5 348.579 498.579 347.282C498.658 345.982 498.819 344.897 499.154 343.957C499.672 342.507 500.584 341.468 502.087 340.5ZM475.5 362.54L338.503 266.742C338.533 265.564 338.794 263.994 340.149 262.67C341.615 261.238 344.46 260 350 260C352.889 260 355.19 259.264 357.003 258.049C358.813 256.835 360.109 255.163 361.023 253.329C362.734 249.892 363.124 245.842 363.024 242.996L489.5 242.115V258.047L489.509 258.094C489.854 259.908 490.833 262.613 492.661 264.877C494.499 267.152 497.214 269 501 269C505.502 269 508.221 269.509 509.825 270.713C511.379 271.878 512 273.793 512 277V334.477C511.919 335.331 511.588 336.606 510.874 337.656C510.165 338.699 509.098 339.5 507.5 339.5H487.954L487.908 339.509C486.497 339.773 484.409 340.584 482.664 342.167C480.905 343.763 479.5 346.143 479.5 349.5C479.5 355.806 476.905 357 476 357H475.5V362.54ZM510.513 339.5H529C531.611 339.5 533.3 338.269 534.376 336.715C535.463 335.147 535.918 333.249 536 331.984V277C536 274.776 535.747 272.217 533.599 270.243C531.433 268.253 527.224 266.751 519.015 267C512.347 267.202 508.178 265.816 505.685 263.923C503.196 262.033 502.412 259.66 502.5 257.986V242.004L490.5 242.107V257.952C490.829 259.638 491.749 262.156 493.439 264.248C495.135 266.348 497.586 268 501 268C505.498 268 508.529 268.491 510.425 269.913C512.371 271.372 513 273.707 513 277V334.523L512.998 334.545C512.909 335.525 512.539 336.987 511.701 338.219C511.379 338.692 510.986 339.134 510.513 339.5ZM489.997 241.111L503 241L510 241V228H422.5L328 229.492V242.493L362.493 242L362.497 242L489.997 241.111Z" fill="#C4CFD2"/>
<path d="M423 442V451C421.833 452.5 417.9 455.6 411.5 456L409.497 462.009C409.186 462.943 408.449 463.669 407.49 463.895C394.19 467.035 359.877 467.422 344.5 465.5C329 462 326 461 319 457.5L314 452.097C308.436 450.563 302.884 448.715 297.566 446.5C295.678 445.714 293.819 444.881 292 444C266.4 431.6 326 439.5 359 445L423 442Z" fill="white"/>
<path fill-rule="evenodd" clip-rule="evenodd" d="M288.443 441.487C289.381 442.094 290.628 442.78 292.218 443.55C294.028 444.427 295.878 445.255 297.758 446.038C303.054 448.244 308.586 450.085 314.133 451.615C331.528 456.414 349.039 458.143 359.826 458.453C359.185 458.268 358.535 458.061 357.895 457.834C356.7 457.409 355.529 456.906 354.523 456.325C353.523 455.748 352.652 455.073 352.093 454.291L352 454.16V445.5H353V453.834C353.448 454.406 354.144 454.952 355.023 455.459C355.96 456 357.071 456.479 358.23 456.891C360.523 457.707 362.962 458.247 364.523 458.497C377.546 457.663 405.077 455.9 411.469 455.501C417.538 455.122 421.295 452.259 422.5 450.823V442.524L358.97 445.502L358.918 445.493C342.421 442.744 319.29 439.397 303.49 438.286C299.541 438.009 296.058 437.871 293.256 437.917C290.434 437.963 288.364 438.194 287.2 438.621C286.604 438.839 286.373 439.064 286.308 439.215C286.264 439.317 286.239 439.529 286.568 439.948C286.895 440.363 287.497 440.876 288.443 441.487ZM359.03 444.498C342.53 441.749 319.393 438.402 303.56 437.289C299.597 437.01 296.082 436.871 293.24 436.917C290.418 436.963 288.195 437.191 286.856 437.682C286.201 437.922 285.627 438.271 285.39 438.818C285.132 439.414 285.356 440.025 285.782 440.566C286.211 441.111 286.922 441.695 287.9 442.327C288.884 442.964 290.171 443.67 291.782 444.45C293.61 445.335 295.478 446.172 297.374 446.962C302.671 449.168 308.195 451.01 313.73 452.542L318.695 457.906L318.776 457.947C325.831 461.475 328.878 462.485 344.39 465.988L344.414 465.993L344.438 465.996C352.161 466.962 364.612 467.345 376.784 467.096C388.949 466.847 400.899 465.965 407.605 464.382C408.747 464.112 409.61 463.25 409.971 462.167L411.869 456.475C418.212 455.981 422.16 452.894 423.395 451.307L423.5 451.171V441.476L359.03 444.498ZM410.791 456.545C403.237 457.02 377.082 458.694 364.532 459.499L364.519 459.5L364.506 459.5C354.901 459.618 335.295 458.26 315.548 453.034L319.305 457.093C326.188 460.531 329.179 461.528 344.586 465.007C352.242 465.961 364.624 466.345 376.764 466.096C388.926 465.847 400.782 464.965 407.376 463.408C408.15 463.225 408.761 462.635 409.023 461.851L410.791 456.545Z" fill="#C10230"/>
<path d="M265 437.5C255.5 433.5 251 424 251 417.5V281.572C251 273.226 258.192 266.696 266.5 267.5L386 267L456.251 272.03C456.334 272.036 456.417 272.042 456.5 272.048C468.887 273.02 476.158 286.3 476 292V423.5C476 433.1 467.333 438.5 463 440L312 447.5C312 447.5 274.5 441.5 265 437.5Z" fill="white"/>
<path fill-rule="evenodd" clip-rule="evenodd" d="M386.017 266.5L456.283 271.531C456.283 271.531 456.284 271.531 456.285 271.531C456.37 271.537 456.454 271.543 456.539 271.55C462.91 272.05 467.94 275.713 471.344 279.938C473.047 282.052 474.353 284.318 475.224 286.424C476.09 288.518 476.541 290.487 476.5 292.007V423.5C476.5 428.464 474.256 432.334 471.48 435.139C468.712 437.938 465.393 439.701 463.164 440.473L463.096 440.496L311.973 448.002L311.921 447.994L311.938 447.888C311.921 447.994 311.921 447.994 311.921 447.994L311.914 447.993L311.497 447.925C311.219 447.88 310.811 447.814 310.289 447.728C309.244 447.556 307.741 447.306 305.908 446.993C302.242 446.368 297.255 445.492 291.969 444.491C286.685 443.491 281.1 442.364 276.239 441.237C271.389 440.113 267.225 438.98 264.806 437.961C255.102 433.875 250.5 424.18 250.5 417.5V281.572C250.5 272.939 257.932 266.183 266.523 267L386.017 266.5ZM266.446 267.997C258.435 267.225 251.5 273.523 251.5 281.572V417.5C251.5 423.82 255.898 433.125 265.194 437.039C267.525 438.021 271.611 439.137 276.465 440.263C281.307 441.386 286.877 442.509 292.156 443.509C297.433 444.508 302.414 445.383 306.076 446.007C307.907 446.32 309.408 446.569 310.451 446.741C310.973 446.827 311.38 446.893 311.657 446.938L311.865 446.972C315.341 444.237 322.114 436.311 322.5 425.482C322.9 414.298 322 333.851 321.5 295.006L321.5 295C321.5 290.913 319.955 286.452 317.99 282.511C316.081 278.681 313.8 275.388 312.241 273.473L266.446 267.997ZM313.536 273.496C315.096 275.51 317.142 278.568 318.885 282.064C320.878 286.063 322.499 290.685 322.5 294.996C323 333.82 323.9 414.302 323.5 425.518C323.133 435.782 317.244 443.503 313.464 446.927L462.903 439.504C465.007 438.764 468.15 437.084 470.77 434.436C473.411 431.766 475.5 428.136 475.5 423.5V291.986C475.537 290.657 475.138 288.832 474.3 286.806C473.465 284.788 472.208 282.605 470.565 280.565C467.276 276.482 462.477 273.019 456.462 272.547C456.462 272.547 456.461 272.547 456.461 272.547L456.218 272.529C456.218 272.529 456.217 272.529 456.217 272.529C455.66 272.493 455.093 272.483 454.515 272.5C441.014 272.897 357.169 273.326 313.536 273.496ZM444.309 271.677L385.983 267.5L274.61 267.966L312.529 272.5C349.544 272.357 416.945 272.021 444.309 271.677Z" fill="#C10230"/>
<path fill-rule="evenodd" clip-rule="evenodd" d="M450.5 294.985C450.894 281.581 443.77 274.694 440.276 272.947L440.724 272.053C444.563 273.973 451.906 281.219 451.5 295.015C451.1 308.603 451.333 349.991 451.5 368.996L451.5 369.028L451.496 369.06C451.236 371.234 450.123 374.483 447.634 377.247C445.132 380.026 441.255 382.295 435.518 382.5C424.315 382.9 384.512 384 366.014 384.5L365.993 384.501L365.972 384.499C362.905 384.329 358.289 383.285 354.374 380.692C350.439 378.086 347.206 373.907 347 367.516C346.6 355.107 346.333 317.333 346.5 299.995L346.5 299.969L346.503 299.943C346.996 295.673 346.624 289.009 344.41 283.435C342.202 277.872 338.216 273.5 331.5 273.5V272.5C338.784 272.5 343.048 277.295 345.34 283.066C347.622 288.813 348.003 295.633 347.5 300.031C347.334 317.372 347.6 355.1 348 367.484C348.194 373.494 351.211 377.397 354.926 379.858C358.652 382.326 363.074 383.333 366.007 383.5C384.518 383 424.289 381.9 435.482 381.501C440.945 381.305 444.568 379.158 446.891 376.578C449.215 373.997 450.254 370.965 450.5 368.972C450.333 349.962 450.1 308.59 450.5 294.985Z" fill="#C10230"/>
<path fill-rule="evenodd" clip-rule="evenodd" d="M447.439 410.656C444.594 408.795 440.76 408.588 438.075 408.995L438.048 408.999L362.999 412.001L362.977 412C361.243 411.921 358.59 412.421 356.332 414.182C354.094 415.927 352.195 418.95 352 424.019C351.594 434.557 346.434 442.93 343.875 445.831L343.125 445.169C345.565 442.404 350.606 434.243 351 423.981C351.205 418.65 353.222 415.34 355.717 413.393C358.184 411.47 361.069 410.917 363.001 411L437.953 408.002C440.766 407.581 444.866 407.778 447.986 409.819C449.563 410.851 450.883 412.35 451.647 414.456C452.408 416.556 452.603 419.227 451.992 422.59C450.785 429.228 449.104 433.741 447.475 436.692C446.661 438.167 445.857 439.257 445.127 440.028C444.404 440.792 443.73 441.267 443.171 441.47L442.829 440.53C443.186 440.4 443.734 440.046 444.401 439.341C445.062 438.643 445.818 437.625 446.6 436.209C448.163 433.376 449.815 428.972 451.008 422.411C451.597 419.173 451.392 416.69 450.706 414.797C450.023 412.91 448.849 411.579 447.439 410.656Z" fill="#C10230"/>
<path fill-rule="evenodd" clip-rule="evenodd" d="M424.691 347.744L426.849 347.723C429.117 347.701 430.999 348.32 432.448 349.562C434.09 350.978 434.938 353.022 434.972 355.645C435.01 358.634 434.067 360.739 432.161 361.898C431.237 362.473 429.734 362.779 427.569 362.828L420.821 362.98L420.702 339.107L433.466 339.074L433.515 343.132L424.658 343.185L424.691 347.744ZM424.771 358.943L427.574 358.889C430.622 358.831 430.994 357.098 430.978 355.597C430.961 354.036 430.543 352.986 429.699 352.382C428.956 351.859 427.777 351.603 426.192 351.624L424.719 351.643L424.771 358.943ZM411.856 349.26L408.56 356.424L404.006 356.5L397.086 339.169L401.56 339.157L406.476 351.142L411.841 339.13L415.843 339.12L415.897 363.09L411.809 363.182L411.856 349.26ZM400.6 363.493L396.121 363.594L389.916 347.633C389.916 347.633 389.047 344.983 387.074 345.092C385.183 345.197 384.643 346.661 384.643 346.661L387.226 339.323L387.184 339.194L389.461 339.218L391.73 339.182L391.685 339.311L400.6 363.493Z" fill="#002E6D"/>
<path fill-rule="evenodd" clip-rule="evenodd" d="M382.742 363.895L378.131 363.999L380.662 357.567L385.373 357.485L382.742 363.895Z" fill="#C10230"/>
<path d="M379 256.39V234.744C379 234.302 379.29 233.913 379.713 233.786L384 232.5H404C404.552 232.5 405 232.948 405 233.5V234L408 232.5H427C427.552 232.5 428 232.948 428 233.5V248.371C428 248.457 428.011 248.542 428.033 248.624L441.873 301.514C441.953 301.82 441.884 302.145 441.686 302.392L434.8 311L430.3 316.625C430.11 316.862 429.823 317 429.519 317H400.5L390.737 308.214C390.583 308.075 390.476 307.891 390.43 307.688L379.024 256.608C379.008 256.536 379 256.463 379 256.39Z" fill="white"/>
<path fill-rule="evenodd" clip-rule="evenodd" d="M383.927 232H404C404.728 232 405.334 232.518 405.471 233.205L407.882 232H427C427.828 232 428.5 232.672 428.5 233.5V248.371C428.5 248.414 428.505 248.457 428.516 248.498L442.357 301.388C442.477 301.846 442.373 302.334 442.077 302.704L430.691 316.937C430.406 317.293 429.975 317.5 429.519 317.5H400.308L390.403 308.585C390.171 308.377 390.01 308.101 389.942 307.797L378.536 256.717C378.512 256.609 378.5 256.5 378.5 256.39V234.744C378.5 234.082 378.935 233.498 379.569 233.307L383.927 232ZM405.5 234.309V247.386C405.5 247.424 405.504 247.462 405.513 247.499L418.808 305.112C418.861 305.339 419.063 305.5 419.296 305.5H419.753C420.073 305.5 420.311 305.204 420.241 304.892L407.536 247.716C407.512 247.609 407.5 247.5 407.5 247.39V233.309L405.5 234.309ZM408.5 233V247.39C408.5 247.427 408.504 247.463 408.512 247.499L421.218 304.675C421.426 305.611 420.713 306.5 419.753 306.5H419.296C418.597 306.5 417.991 306.018 417.834 305.337L404.538 247.723C404.513 247.613 404.5 247.5 404.5 247.386V233.5C404.5 233.224 404.276 233 404 233H384.5V252.381C384.5 252.42 384.505 252.46 384.514 252.498L396.407 301.556C396.433 301.662 396.492 301.757 396.576 301.825L407.178 310.5H434.56L441.296 302.08C441.395 301.956 441.429 301.794 441.389 301.641L427.549 248.751C427.516 248.627 427.5 248.499 427.5 248.371V233.5C427.5 233.224 427.276 233 427 233H408.5ZM433.76 311.5H407.195L401.779 316.5H429.519C429.671 316.5 429.815 316.431 429.91 316.312L433.76 311.5ZM400.496 316.323L391.072 307.842C390.995 307.773 390.941 307.681 390.918 307.579L379.512 256.499C379.504 256.463 379.5 256.426 379.5 256.39V234.744C379.5 234.523 379.645 234.329 379.856 234.265L383.5 233.172V252.381C383.5 252.5 383.514 252.618 383.542 252.734L395.435 301.792C395.512 302.109 395.69 302.393 395.943 302.599L406.238 311.023L400.496 316.323Z" fill="#C4CFD2"/>
<path fill-rule="evenodd" clip-rule="evenodd" d="M405.261 292.015C405.485 291.961 405.711 291.931 405.937 291.923C408.074 291.845 410.174 293.742 410.826 296.478C411.483 299.235 410.442 301.893 408.472 302.767C408.28 302.853 408.079 302.921 407.87 302.971C405.517 303.531 403.025 301.533 402.305 298.507C401.584 295.482 402.908 292.575 405.261 292.015ZM408.873 301.279C409.799 300.35 410.321 298.673 409.853 296.71C409.401 294.81 408.242 293.566 407.039 293.115C408.389 294.872 409.593 297.702 408.873 301.279ZM405.588 292.967C407.092 294.479 408.925 297.683 407.668 301.991C407.658 301.993 407.648 301.996 407.638 301.998C406.036 302.38 403.927 301.006 403.277 298.276C402.627 295.546 403.89 293.369 405.492 292.987C405.524 292.98 405.556 292.973 405.588 292.967Z" fill="#C4CFD2"/>
<path fill-rule="evenodd" clip-rule="evenodd" d="M429.325 291.692C429.552 291.655 429.779 291.642 430.004 291.651C432.141 291.733 434.095 293.782 434.539 296.561C434.984 299.344 433.763 301.904 431.751 302.644C431.544 302.72 431.327 302.777 431.104 302.813C428.715 303.195 426.38 301.015 425.889 297.944C425.398 294.873 426.936 292.074 429.325 291.692ZM432.368 301.076C433.282 300.191 433.856 298.618 433.552 296.719C433.246 294.805 432.198 293.484 431.042 292.935C432.317 294.817 433.378 297.727 432.368 301.076ZM429.581 292.666C431.075 294.381 432.765 297.811 431.034 301.81C431.005 301.815 430.975 301.821 430.946 301.826C429.319 302.086 427.32 300.557 426.877 297.786C426.434 295.015 427.856 292.939 429.483 292.679C429.515 292.674 429.548 292.669 429.581 292.666Z" fill="#C4CFD2"/>
<path fill-rule="evenodd" clip-rule="evenodd" d="M395 236C395.206 236 395.408 236.019 395.606 236.057C397.527 236.422 399 238.496 399 241C399 243.502 397.53 245.575 395.61 245.942C395.411 245.98 395.207 246 395 246C392.791 246 391 243.761 391 241C391 238.239 392.791 236 395 236ZM396.205 244.649C397.199 244.057 398 242.752 398 241C398 239.22 397.173 237.9 396.156 237.323C396.816 239.172 397.234 241.896 396.205 244.649ZM394.953 237.001C395.739 238.765 396.432 241.933 394.97 245C393.519 244.979 392 243.412 392 241C392 238.597 393.507 237.034 394.953 237.001Z" fill="#C4CFD2"/>
<path fill-rule="evenodd" clip-rule="evenodd" d="M418 236C418.206 236 418.408 236.019 418.606 236.057C420.527 236.422 422 238.496 422 241C422 243.502 420.53 245.575 418.61 245.942C418.411 245.98 418.207 246 418 246C415.791 246 414 243.761 414 241C414 238.239 415.791 236 418 236ZM419.205 244.649C420.199 244.057 421 242.752 421 241C421 239.22 420.173 237.9 419.156 237.323C419.816 239.172 420.234 241.896 419.205 244.649ZM417.953 237.001C418.739 238.765 419.432 241.933 417.97 245C416.519 244.979 415 243.412 415 241C415 238.597 416.507 237.034 417.953 237.001Z" fill="#C4CFD2"/>
<path d="M447 22.5029L544.5 29.5029V184.503L541 184.433V227.503L421 228.003L327 229.503H219.5V200.503V86.0029L418.5 21.5029L447 22.5029Z" fill="white"/>
<path fill-rule="evenodd" clip-rule="evenodd" d="M418.43 21L447.027 22.0034L545 29.0374V185.013L541.5 184.943V228.001L421.008 228.503L421.002 228.503L327.008 230.003L327 230.003H219V85.6392L418.43 21ZM421.5 227.501L540.5 227.005V184.924L421.5 182.562V227.501ZM420.5 182.543L418.518 182.503L220 200.958V229.003H327L420.5 227.511V182.543ZM220 199.954L418 181.547V22.1904L220 86.3663V199.954ZM419 22.0206V181.513L544 183.993V29.9682L446.982 23.0025L419 22.0206Z" fill="#C4CFD2"/>
<path fill-rule="evenodd" clip-rule="evenodd" d="M447.639 29.9707L539 37.0373V170.014L428.932 166.998L426.5 166.39V138.5H427.5V165.61L428.5 165.86V132.102L421.469 115.528L447.639 29.9707ZM429.5 166.014L538 168.986V37.9629L448.361 31.0295L422.531 115.472L429.5 131.898V166.014Z" fill="#C4CFD2"/>
<path d="M420.5 153.506L213 183.506V157.006L210.5 153.506V85.5056C210.667 83.6723 214.3 79.1056 227.5 75.5056C240.7 71.9056 382.667 27.3389 451.5 4.50562L481 4.00562L492.5 0.505615L538.5 4.00562L546.5 13.0056L577 16.0056L584.5 26.0056V65.5056L566 123.506L562.5 127.006L552.5 161.006L550 161.506H545V128.506V126.006V38.0056V29.5056L535.5 28.5056L447.5 22.5056V52.5056L430 112.506L433 116.006L423 152.506L420.5 153.506Z" fill="white"/>
<path fill-rule="evenodd" clip-rule="evenodd" d="M492.444 0L538.739 3.52246L546.744 12.5272L577.268 15.5296L585 25.839V65.5835L566.439 123.773L562.944 127.269L552.894 161.437L550.049 162.006H544.5V29.9558L535.466 29.0045L535.448 29.0029L448 23.0409V52.5771L430.556 112.386L433.552 115.882L423.417 152.878L420.63 153.992L212.5 184.083V157.166L210 153.666V85.483L210.002 85.4604C210.056 84.872 210.372 84.1539 210.974 83.3713C211.581 82.5807 212.503 81.6921 213.824 80.7597C216.465 78.8953 220.732 76.8333 227.368 75.0233C240.554 71.4274 382.508 26.8649 451.343 4.03111L451.415 4.00705L480.921 3.50694L492.444 0ZM213.5 157.422V182.928L420.1 153.058L429.318 117.64L213.5 157.422ZM429.116 116.66L213.222 156.456L211.363 153.853L426.786 113.554L429.116 116.66ZM427.55 112.905L430.545 116.898L421.233 152.674L422.583 152.134L432.448 116.13L429.444 112.626L447 52.4343V12.2986L452.305 6.99372L487.305 8.99372L493.81 2.48877L537.74 6.0234L545.744 15.0272L576.277 18.0305L582.5 26.847V65.5855L563.938 122.275L560.945 125.268L550.708 160.854L552.106 160.575L562.056 126.742L565.561 123.238L584 65.4279V26.1723L576.732 16.4817L546.256 13.4841L538.261 4.48891L492.691 1.02167L486.695 7.01765L451.695 5.01765L445 11.7128V52.5765L427.55 112.905ZM465.009 4.7768L486.305 5.99372L490.732 1.56634L481.079 4.50443L465.009 4.7768ZM449.655 5.64391C380.111 28.6653 240.72 72.4186 227.632 75.9881C221.068 77.7781 216.918 79.7994 214.401 81.5766C213.142 82.4651 212.3 83.287 211.767 83.9807C211.239 84.668 211.036 85.2004 211 85.5305V152.903L426.605 112.571L444 52.4348V11.2986L449.655 5.64391ZM549.624 161.006L559.786 125.68L545.5 128.905V161.006H549.624ZM545.5 127.88L560.249 124.55L561.945 122.853L545.5 126.409V127.88ZM545.5 125.386L563.114 121.578L581.5 65.4259V27.676L545.5 38.3787V125.386ZM545.5 37.3354L581.19 26.7249L575.788 19.0729L538.39 28.3071L545.5 29.0556V37.3354ZM535.456 28.0015L573.053 18.7183L545.256 15.9841L537.26 6.98797L494.19 3.5226L487.695 10.0177L452.695 8.01765L448 12.7128V22.0386L535.456 28.0015Z" fill="#C4CFD2"/>
<path fill-rule="evenodd" clip-rule="evenodd" d="M490.588 157.095C514.933 154.793 532.863 127.704 530.124 96.1105C527.385 64.5165 505.087 41.2324 480.742 43.5347C456.397 45.8369 438.467 72.9252 441.206 104.519C443.945 136.113 466.242 159.397 490.588 157.095ZM490.674 158.091C515.778 155.717 533.886 127.925 531.119 96.0163C528.353 64.1073 505.759 40.1644 480.656 42.5384C455.552 44.9124 437.444 72.7043 440.21 104.613C442.977 136.522 465.57 160.465 490.674 158.091Z" fill="#C4CFD2"/>
<path d="M531.212 95.3547C533.885 126.189 516.381 152.831 492.371 155.102C468.361 157.372 446.559 134.447 443.885 103.613C441.212 72.7785 458.716 46.1365 482.727 43.8659C506.737 41.5953 528.539 64.5204 531.212 95.3547Z" stroke="#C4CFD2"/>
<path d="M531.301 95.2188C533.988 126.211 516.394 153.205 492.005 155.511C467.615 157.817 445.666 134.563 442.979 103.571C440.292 72.5791 457.885 45.5853 482.274 43.2789C506.664 40.9725 528.614 64.2267 531.301 95.2188Z" fill="white"/>
<path fill-rule="evenodd" clip-rule="evenodd" d="M491.918 154.515C515.55 152.28 532.965 125.99 530.305 95.3129C527.645 64.6362 505.992 42.0405 482.361 44.2752C458.73 46.5099 441.314 72.8003 443.974 103.477C446.634 134.154 468.287 156.749 491.918 154.515ZM492.005 155.511C516.394 153.205 533.988 126.211 531.301 95.2188C528.614 64.2267 506.664 40.9725 482.274 43.2789C457.885 45.5853 440.292 72.5791 442.979 103.571C445.666 134.563 467.615 157.817 492.005 155.511Z" fill="white"/>
<mask id="path-65-inside-1" fill="white">
<path fill-rule="evenodd" clip-rule="evenodd" d="M491.022 138.178C507.459 136.623 519.685 118.295 517.818 96.7604C515.95 75.2255 500.772 59.489 484.335 61.0434C467.898 62.5978 455.672 80.9258 457.539 102.461C459.406 123.996 474.585 139.732 491.022 138.178ZM491.108 139.174C508.304 137.548 520.708 118.517 518.813 96.6663C516.919 74.816 501.443 58.421 484.248 60.0471C467.053 61.6732 454.649 80.7046 456.543 102.555C458.438 124.405 473.913 140.8 491.108 139.174Z"/>
</mask>
<path fill-rule="evenodd" clip-rule="evenodd" d="M491.022 138.178C507.459 136.623 519.685 118.295 517.818 96.7604C515.95 75.2255 500.772 59.489 484.335 61.0434C467.898 62.5978 455.672 80.9258 457.539 102.461C459.406 123.996 474.585 139.732 491.022 138.178ZM491.108 139.174C508.304 137.548 520.708 118.517 518.813 96.6663C516.919 74.816 501.443 58.421 484.248 60.0471C467.053 61.6732 454.649 80.7046 456.543 102.555C458.438 124.405 473.913 140.8 491.108 139.174Z" fill="#C4CFD2"/>
<path d="M516.822 96.8546C518.662 118.072 506.616 135.699 490.936 137.182L491.108 139.174C508.302 137.548 520.708 118.519 518.813 96.6663L516.822 96.8546ZM484.421 62.0397C500.101 60.5568 514.982 75.637 516.822 96.8546L518.813 96.6663C516.919 74.814 501.442 58.4212 484.248 60.0471L484.421 62.0397ZM458.535 102.367C456.695 81.149 468.741 63.5225 484.421 62.0397L484.248 60.0471C467.054 61.6731 454.649 80.7026 456.543 102.555L458.535 102.367ZM490.936 137.182C475.255 138.664 460.374 123.584 458.535 102.367L456.543 102.555C458.438 124.407 473.915 140.8 491.108 139.174L490.936 137.182ZM517.818 96.7604C519.685 118.295 507.459 136.623 491.022 138.178L491.195 140.17C509.148 138.473 521.73 118.738 519.809 96.5721L517.818 96.7604ZM484.335 61.0434C500.772 59.489 515.95 75.2255 517.818 96.7604L519.809 96.5721C517.887 74.4065 502.115 57.3531 484.162 59.0509L484.335 61.0434ZM457.539 102.461C455.672 80.9258 467.898 62.5978 484.335 61.0434L484.162 59.0509C466.208 60.7487 453.626 80.4834 455.548 102.649L457.539 102.461ZM491.022 138.178C474.585 139.732 459.406 123.996 457.539 102.461L455.548 102.649C457.47 124.815 473.241 141.868 491.195 140.17L491.022 138.178Z" fill="#C4CFD2" mask="url(#path-65-inside-1)"/>
<path fill-rule="evenodd" clip-rule="evenodd" d="M518.813 96.6663C520.708 118.519 508.302 137.548 491.108 139.174C473.915 140.8 458.438 124.407 456.543 102.555C454.649 80.7026 467.054 61.6731 484.248 60.0471C501.442 58.4212 516.919 74.814 518.813 96.6663ZM491.022 138.178C507.459 136.623 519.685 118.295 517.818 96.7604C515.95 75.2255 500.772 59.489 484.335 61.0434C467.898 62.5978 455.672 80.9258 457.539 102.461C459.406 123.996 474.585 139.732 491.022 138.178Z" fill="#C4CFD2"/>
<path d="M520.916 97.1308C521.206 118.815 507.745 136.683 490.85 137.041C473.954 137.399 460.023 120.11 459.734 98.4259C459.444 76.7416 472.905 58.8732 489.8 58.5155C506.695 58.1579 520.626 75.4465 520.916 97.1308Z" fill="#002E6D"/>
<mask id="path-69-inside-2" fill="white">
<path fill-rule="evenodd" clip-rule="evenodd" d="M490.836 136.041C506.961 135.7 520.202 118.53 519.916 97.1519C519.631 75.7734 505.939 59.1741 489.814 59.5154C473.688 59.8568 460.448 77.0262 460.733 98.4047C461.019 119.783 474.711 136.382 490.836 136.041ZM490.85 137.041C507.745 136.683 521.206 118.815 520.916 97.1308C520.626 75.4465 506.695 58.1579 489.8 58.5155C472.905 58.8732 459.444 76.7416 459.734 98.4259C460.023 120.11 473.954 137.399 490.85 137.041Z"/>
</mask>
<path fill-rule="evenodd" clip-rule="evenodd" d="M490.836 136.041C506.961 135.7 520.202 118.53 519.916 97.1519C519.631 75.7734 505.939 59.1741 489.814 59.5154C473.688 59.8568 460.448 77.0262 460.733 98.4047C461.019 119.783 474.711 136.382 490.836 136.041ZM490.85 137.041C507.745 136.683 521.206 118.815 520.916 97.1308C520.626 75.4465 506.695 58.1579 489.8 58.5155C472.905 58.8732 459.444 76.7416 459.734 98.4259C460.023 120.11 473.954 137.399 490.85 137.041Z" fill="#C10230"/>
<path d="M518.917 97.1731C519.198 118.244 506.18 134.716 490.823 135.041L490.85 137.041C507.743 136.683 521.206 118.817 520.916 97.1308L518.917 97.1731ZM489.827 60.5154C505.184 60.1903 518.635 76.1025 518.917 97.1731L520.916 97.1308C520.626 75.4444 506.694 58.1579 489.8 58.5155L489.827 60.5154ZM461.733 98.3835C461.452 77.3129 474.47 60.8404 489.827 60.5154L489.8 58.5155C472.907 58.8731 459.444 76.7395 459.734 98.4259L461.733 98.3835ZM490.823 135.041C475.466 135.366 462.015 119.454 461.733 98.3835L459.734 98.4259C460.023 120.112 473.956 137.399 490.85 137.041L490.823 135.041ZM519.916 97.1519C520.202 118.53 506.961 135.7 490.836 136.041L490.863 138.041C508.528 137.667 522.21 119.1 521.916 97.1096L519.916 97.1519ZM489.814 59.5154C505.939 59.1741 519.631 75.7734 519.916 97.1519L521.916 97.1096C521.622 75.1196 507.452 57.1417 489.787 57.5156L489.814 59.5154ZM460.733 98.4047C460.448 77.0262 473.688 59.8568 489.814 59.5154L489.787 57.5156C472.122 57.8896 458.44 76.4571 458.734 98.447L460.733 98.4047ZM490.836 136.041C474.711 136.382 461.019 119.783 460.733 98.4047L458.734 98.447C459.028 120.437 473.198 138.415 490.863 138.041L490.836 136.041Z" fill="#C4CFD2" mask="url(#path-69-inside-2)"/>
<path fill-rule="evenodd" clip-rule="evenodd" d="M520.916 97.1308C521.206 118.817 507.743 136.683 490.85 137.041C473.956 137.399 460.023 120.112 459.734 98.4259C459.444 76.7395 472.907 58.8731 489.8 58.5155C506.694 58.1579 520.626 75.4444 520.916 97.1308ZM490.836 136.041C506.961 135.7 520.202 118.53 519.916 97.1519C519.631 75.7734 505.939 59.1741 489.814 59.5154C473.688 59.8568 460.448 77.0262 460.733 98.4047C461.019 119.783 474.711 136.382 490.836 136.041Z" fill="#C4CFD2"/>
<path fill-rule="evenodd" clip-rule="evenodd" d="M515.651 102.695C516.672 91.8636 513.664 83.293 511.793 80.3856L512.182 79.4641C514.242 82.6652 517.375 91.7203 516.307 103.049L515.651 102.695Z" fill="white"/>
<path fill-rule="evenodd" clip-rule="evenodd" d="M514.929 108.14C515.071 107.5 515.161 106.83 515.274 105.579L515.932 105.925C515.816 107.204 515.717 107.973 515.549 108.729C515.409 109.363 515.221 109.98 514.948 110.875C514.904 111.022 514.857 111.177 514.807 111.34L514.218 110.632C514.269 110.465 514.316 110.308 514.361 110.161C514.636 109.256 514.804 108.706 514.929 108.14Z" fill="white"/>
<path d="M11.5 342L8.5 340.5V322.5L3.5 321.5V296.5V294L1 293V222C2 219.833 5.5 215.4 11.5 215C17.5 214.6 120 201.5 170.5 195L219.5 189L275 189.5L282 197.5L320 198.5L327.5 208V248.5L313.5 304L309.5 306.5L304 339L300.5 341.5H295L149.5 372H147L11.5 342Z" fill="white"/>
<path fill-rule="evenodd" clip-rule="evenodd" d="M219.472 188.5L275.229 189.002L282.232 197.006L320.247 198.006L328 207.826V248.562L313.936 304.317L309.956 306.805L304.459 339.287L300.66 342H295.052L149.552 372.5H146.945L11.3316 342.475L8 340.809V322.91L3 321.91V294.339L0.5 293.339V221.89L0.54602 221.791C1.59415 219.52 5.22489 214.917 11.4667 214.501C17.4463 214.102 119.919 201.006 170.436 194.504L170.439 194.504L219.472 188.5ZM4 294.537V296.045L152.719 309.925L150.657 304.977L4 294.537ZM151.52 304.447L154.018 310.444L147.5 346.545V371.5H149V346.455L155.482 310.556L152.98 304.553L163.5 250.452V206.311L171.277 197.497L212.318 197.998L219.315 192H274.227L281.227 200H318.228L325 207.814V248.562L311.436 302.317L307.454 304.806L301.204 340.383L303.541 338.713L309.044 306.195L313.064 303.683L327 248.438V208.174L319.753 198.994L281.768 197.994L274.771 189.998L219.657 189.501L211.159 195.5H170.723L162 205.192V250.548L151.52 304.447ZM178.697 194.5H210.841L217.588 189.738L178.697 194.5ZM169.226 195.668C118.294 202.222 17.5009 215.101 11.5333 215.499C5.86439 215.877 2.51091 220.016 1.5 222.112V292.662L3.61329 293.507L150.594 303.97L161 250.452V204.808L169.226 195.668ZM300.08 341L306.546 304.194L310.564 301.683L324 248.438V208.668L295.641 216.98L295.359 216.02L323.612 207.739L317.813 201.047L283.098 207.99L282.902 207.01L312.951 201H280.773L273.773 193H219.685L212.682 199.002L171.723 198.503L164.5 206.689V250.548L154.02 304.447L156.518 310.444L150 346.545V371.384L294.948 341H300.08ZM146.5 371.377L11.6684 341.525L9 340.191V323.094L146.5 346.921V371.377ZM146.596 345.923L152.911 310.947L4 297.049V321.09L8.58537 322.007L8.59806 322.01L146.596 345.923Z" fill="#C4CFD2"/>
<path d="M9.5 378.5V341L11.5 342L147 372H148.8L150 370L149.5 347L156 310.5L153.5 304L164 250.5V207.5H295.5V365L294 367.5V414.5L148.5 424.5L9.5 378.5Z" fill="white"/>
<path fill-rule="evenodd" clip-rule="evenodd" d="M163.5 207H296V365.138L294.5 367.638V414.967L148.436 425.006L9 378.861V340.191L11.6684 341.525L147.055 371.5H148.517L149.497 369.867L148.999 346.961L155.483 310.549L152.982 304.045L163.5 250.451V207ZM150.289 370.49L149.402 371.969L293.711 367.01L294.598 365.531L150.289 370.49ZM295 364.517L150.489 369.483L150.001 347.039L156.517 310.451L154.018 303.955L164.5 250.549V208H295V364.517ZM293.5 368.017L149 372.983V423.964L293.5 414.033V368.017ZM148 423.808V372.5H146.945L11.3316 342.475L10 341.809V378.139L148 423.808Z" fill="#C4CFD2"/>
<path fill-rule="evenodd" clip-rule="evenodd" d="M316 296.5V321.61L307 341.11V365.106L302.825 374.5H293.5V373.5H302.175L305.731 365.5H295V364.5H306V340.89L315 321.39V296.5H316Z" fill="white"/>
<path fill-rule="evenodd" clip-rule="evenodd" d="M275.5 344.984L168 348.468V350.468L277.5 347.031V226H275.5V344.984ZM278.5 348L167 351.5V225H278.5V348ZM274.5 226H168V347.467L274.5 344.016V226Z" fill="#C4CFD2"/>
<path fill-rule="evenodd" clip-rule="evenodd" d="M188.566 256.358C182.014 265.304 179.751 276.809 180 286.988C180.218 295.93 182.381 307.574 188.778 316.967C195.155 326.331 205.765 333.5 223 333.5C240.219 333.5 250.774 325.762 257.005 316.104C263.254 306.417 265.165 294.772 265 287.011L265 287.003L265 286.995C265.082 279.317 263.072 267.796 256.794 258.211C250.534 248.655 240.019 241 223 241C205.943 241 195.1 247.436 188.566 256.358ZM187.759 255.767C194.5 246.564 205.656 240 223 240C240.38 240 251.199 247.845 257.631 257.664C264.042 267.451 266.082 279.175 266 286.997C266.167 294.903 264.227 306.753 257.845 316.646C251.442 326.571 240.581 334.5 223 334.5C205.434 334.5 194.514 327.167 187.951 317.53C181.408 307.922 179.221 296.065 179 287.012C178.748 276.691 181.036 264.946 187.759 255.767Z" fill="#C4CFD2"/>
<path fill-rule="evenodd" clip-rule="evenodd" d="M188.516 259.866C182.067 268.424 179.761 279.249 180 288.265C180.21 296.184 182.42 306.376 188.708 314.575C194.976 322.748 205.334 328.995 221.967 329C237.297 327.759 246.738 320.454 252.323 311.758C257.925 303.034 259.659 292.888 259.5 286.012L259.5 286.003L259.5 285.994C259.58 279.196 257.724 269.678 252.085 261.499C246.462 253.344 237.058 246.491 221.962 245C205.528 245.006 194.945 251.334 188.516 259.866ZM187.717 259.264C194.351 250.46 205.246 244 221.987 244H222.011L222.036 244.002C237.439 245.517 247.115 252.531 252.908 260.931C258.685 269.31 260.58 279.037 260.5 285.997C260.661 293.028 258.894 303.377 253.165 312.298C247.419 321.245 237.698 328.735 222.027 329.998L222.007 330H221.987C205.056 330 194.388 323.625 187.915 315.184C181.459 306.766 179.214 296.347 179 288.291C178.757 279.11 181.1 268.046 187.717 259.264Z" fill="#C4CFD2"/>
<path d="M246.797 286.878C247.776 305.365 234.328 321.106 216.76 322.037C199.191 322.967 184.156 308.735 183.176 290.248C182.197 271.761 195.645 256.02 213.213 255.089C230.782 254.158 245.817 268.391 246.797 286.878Z" fill="#002E6D"/>
<path fill-rule="evenodd" clip-rule="evenodd" d="M238.153 295.248C241.071 286.649 237.312 278.451 234.626 275.326L235.385 274.674C238.236 277.991 242.16 286.55 239.1 295.569L238.153 295.248Z" fill="white"/>
<path fill-rule="evenodd" clip-rule="evenodd" d="M236.359 299.488C236.656 299.017 236.877 298.5 237.207 297.503L238.157 297.818C237.819 298.837 237.567 299.446 237.205 300.021C236.902 300.502 236.523 300.953 235.983 301.598C235.894 301.704 235.8 301.815 235.702 301.933L234.935 301.292C235.036 301.171 235.13 301.058 235.219 300.952C235.767 300.298 236.095 299.907 236.359 299.488Z" fill="white"/>
</svg>
