<svg width="120" height="60" viewBox="0 0 120 60" fill="none" xmlns="http://www.w3.org/2000/svg">
<path fill-rule="evenodd" clip-rule="evenodd" d="M30.5778 39.8027C30.7091 41.3784 31.0538 42.7244 31.6118 43.8405C32.2027 44.9238 32.9414 45.8102 33.8277 46.4996C34.7469 47.189 35.7974 47.6978 36.9792 48.0261C38.161 48.3215 39.4249 48.4692 40.7708 48.4692C42.3465 48.4692 43.7089 48.2723 44.8579 47.8783C46.0068 47.4844 46.9424 46.9592 47.6646 46.3026C48.3869 45.6132 48.9121 44.8253 49.2404 43.939C49.6015 43.0526 49.782 42.117 49.782 41.1322C49.782 39.7534 49.4702 38.6373 48.8464 37.7838C48.2227 36.9302 47.402 36.2409 46.3844 35.7156C45.3995 35.1575 44.2505 34.7144 42.9374 34.3861C41.6572 34.0578 40.3276 33.7459 38.9489 33.4505C37.6029 33.1222 36.2734 32.7447 34.9603 32.3179C33.68 31.8912 32.531 31.3167 31.5133 30.5945C30.5285 29.8723 29.7242 28.9531 29.1005 27.8369C28.4768 26.688 28.1649 25.2435 28.1649 23.5037C28.1649 22.289 28.4111 21.1072 28.9035 19.9583C29.4288 18.8093 30.1838 17.7916 31.1687 16.9053C32.1863 16.0189 33.4502 15.3131 34.9603 14.7879C36.4703 14.2626 38.2102 14 40.1799 14C42.1824 14 43.9223 14.279 45.3995 14.8371C46.9096 15.3952 48.1571 16.1666 49.1419 17.1515C50.1267 18.1035 50.8654 19.2196 51.3578 20.4999C51.8502 21.7802 52.0964 23.1426 52.0964 24.587H48.8957C48.8957 23.241 48.6495 22.0756 48.1571 21.0908C47.6975 20.106 47.0573 19.3017 46.2366 18.678C45.4159 18.0542 44.4803 17.5946 43.4299 17.2992C42.3794 17.0037 41.296 16.856 40.1799 16.856C38.4728 16.856 37.0284 17.1022 35.8466 17.5947C34.6976 18.0542 33.7785 18.6616 33.0891 19.4166C32.3997 20.1716 31.9237 21.0087 31.6611 21.9279C31.3984 22.8471 31.3492 23.7663 31.5133 24.6855C31.7103 25.8344 32.1699 26.7536 32.8921 27.443C33.6143 28.1324 34.5007 28.7069 35.5512 29.1665C36.6017 29.5932 37.7506 29.9543 38.9981 30.2498C40.2784 30.5124 41.5751 30.8079 42.8882 31.1361C44.2013 31.4316 45.4652 31.7927 46.6798 32.2195C47.9273 32.6462 49.027 33.2207 49.979 33.9429C50.931 34.6651 51.6861 35.6007 52.2441 36.7497C52.835 37.8658 53.1305 39.2774 53.1305 40.9845C53.1305 44.2673 51.9979 46.8114 49.7328 48.617C47.4677 50.4225 44.2834 51.3253 40.1799 51.3253C38.3415 51.3253 36.6345 51.079 35.0588 50.5866C33.483 50.127 32.1207 49.4212 30.9717 48.4692C29.8227 47.4844 28.9199 46.2862 28.2634 44.8746C27.6397 43.4302 27.3278 41.7395 27.3278 39.8027H30.5778ZM10.2082 31.0869C11.6855 31.0869 13.0314 31.0048 14.246 30.8407C15.4607 30.6437 16.4947 30.299 17.3483 29.8066C18.2346 29.2814 18.924 28.592 19.4164 27.7385C19.9088 26.8849 20.155 25.7852 20.155 24.4393C20.155 23.3559 19.9581 22.4368 19.5641 21.6817C19.1702 20.8938 18.6285 20.2537 17.9392 19.7613C17.2826 19.2689 16.4947 18.9078 15.5756 18.678C14.6892 18.4482 13.7536 18.3333 12.7688 18.3333C11.6526 18.3333 10.635 18.5138 9.71579 18.8749C8.82944 19.236 8.05799 19.7613 7.40143 20.4507C6.74487 21.1072 6.23604 21.8951 5.87493 22.8143C5.51383 23.7006 5.33327 24.6855 5.33327 25.7688H2.1818C2.1818 24.193 2.44442 22.7814 2.96967 21.534C3.52774 20.2537 4.38127 19.0719 5.53024 17.9886C6.61356 17.0037 7.82819 16.38 9.17413 16.1174C10.5529 15.8219 11.9645 15.6742 13.4089 15.6742C14.7877 15.6742 16.068 15.8548 17.2498 16.2159C18.4644 16.5442 19.5149 17.0694 20.4013 17.7916C21.2876 18.481 21.9934 19.3674 22.5187 20.4507C23.0439 21.534 23.3065 22.7979 23.3065 24.2423C23.3065 26.0478 22.8962 27.6071 22.0755 28.9203C21.2876 30.2334 20.0566 31.251 18.3823 31.9732C19.6298 32.3672 20.6475 32.8924 21.4353 33.549C22.256 34.1727 22.8962 34.8785 23.3558 35.6664C23.8153 36.4214 24.1272 37.2257 24.2914 38.0792C24.4555 38.9327 24.5376 39.7534 24.5376 40.5413C24.5376 41.9857 24.2914 43.3317 23.7989 44.5791C23.3065 45.8266 22.5843 46.9263 21.6323 47.8783C20.6803 48.8303 19.4985 49.6018 18.0869 50.1927C16.7081 50.7508 15.1324 51.0462 13.3597 51.079C11.3572 51.079 9.61731 50.8985 8.14006 50.5374C6.6628 50.1763 5.43176 49.5854 4.44692 48.7647C3.46209 47.9112 2.69063 46.8114 2.13256 45.4655C1.57449 44.0867 1.19697 42.3797 1 40.3443H4.15147C4.15147 43.0034 4.93934 45.0223 6.51508 46.4011C8.12364 47.747 10.2082 48.42 12.7688 48.42C14.0162 48.42 15.1816 48.2066 16.2649 47.7798C17.3483 47.3531 18.2674 46.7786 19.0225 46.0564C19.8104 45.3342 20.4013 44.4971 20.7952 43.5451C21.222 42.5931 21.4189 41.6082 21.3861 40.5905C21.3204 39.179 20.9922 38.0136 20.4013 37.0944C19.8104 36.1424 19.0061 35.4038 17.9884 34.8785C17.0036 34.3204 15.8382 33.9593 14.4922 33.7952C13.1463 33.5982 11.7183 33.549 10.2082 33.6475V31.0869ZM104.12 20.5816C104.654 21.1157 104.654 21.9818 104.12 22.5159L86.1708 40.4646L84.2364 38.5302L102.185 20.5816C102.719 20.0473 103.585 20.0473 104.12 20.5816ZM80.4787 42.288L76.0708 46.6958L64.4644 35.0895C63.9303 34.5554 63.0642 34.5554 62.5301 35.0895C61.9959 35.6237 61.9959 36.4897 62.5301 37.0239L75.0925 49.5863L75.1035 49.5975C75.1703 49.6643 75.2423 49.7227 75.3181 49.7728C75.849 50.1233 76.5705 50.0649 77.0379 49.5975L77.049 49.5864L82.4131 44.2224L80.4787 42.288ZM118.599 20.5815C119.133 21.1157 119.133 21.9817 118.599 22.5159L91.5277 49.5875L91.5178 49.5975C91.3293 49.786 91.0995 49.9079 90.8576 49.9634C90.7137 49.9964 90.5656 50.0059 90.4193 49.9919C90.1142 49.9627 89.817 49.8312 89.5833 49.5975L89.573 49.5871L77.0098 37.0239C76.4756 36.4897 76.4756 35.6237 77.0098 35.0895C77.5439 34.5553 78.41 34.5553 78.9442 35.0895L90.5505 46.6958L116.665 20.5815C117.199 20.0474 118.065 20.0474 118.599 20.5815Z" fill="#C10230"/>
</svg>
