<svg width="60" height="60" viewBox="0 0 60 60" fill="none" xmlns="http://www.w3.org/2000/svg">
<path d="M37.25 38.1562H22.75C22.5096 38.1562 22.2791 38.0608 22.1092 37.8908C21.9392 37.7209 21.8438 37.4904 21.8438 37.25V22.75C21.8438 22.5096 21.9392 22.2791 22.1092 22.1092C22.2791 21.9392 22.5096 21.8438 22.75 21.8438H37.25C37.4904 21.8438 37.7209 21.9392 37.8908 22.1092C38.0608 22.2791 38.1562 22.5096 38.1562 22.75V37.25C38.1562 37.4904 38.0608 37.7209 37.8908 37.8908C37.7209 38.0608 37.4904 38.1562 37.25 38.1562ZM23.6562 36.3438H36.3438V23.6562H23.6562V36.3438Z" fill="#C10230"/>
<path d="M17.3125 18.2188H2.8125C2.57215 18.2188 2.34164 18.1233 2.17168 17.9533C2.00173 17.7834 1.90625 17.5529 1.90625 17.3125V2.8125C1.90625 2.57215 2.00173 2.34164 2.17168 2.17168C2.34164 2.00173 2.57215 1.90625 2.8125 1.90625H17.3125C17.5529 1.90625 17.7834 2.00173 17.9533 2.17168C18.1233 2.34164 18.2188 2.57215 18.2188 2.8125V17.3125C18.2188 17.5529 18.1233 17.7834 17.9533 17.9533C17.7834 18.1233 17.5529 18.2188 17.3125 18.2188ZM3.71875 16.4062H16.4062V3.71875H3.71875V16.4062Z" fill="#C10230"/>
<path d="M57.1875 58.0938H42.6875C42.4471 58.0938 42.2166 57.9983 42.0467 57.8283C41.8767 57.6584 41.7812 57.4279 41.7812 57.1875V42.6875C41.7812 42.4471 41.8767 42.2166 42.0467 42.0467C42.2166 41.8767 42.4471 41.7812 42.6875 41.7812H57.1875C57.4279 41.7812 57.6584 41.8767 57.8283 42.0467C57.9983 42.2166 58.0938 42.4471 58.0938 42.6875V57.1875C58.0938 57.4279 57.9983 57.6584 57.8283 57.8283C57.6584 57.9983 57.4279 58.0938 57.1875 58.0938ZM43.5938 56.2812H56.2812V43.5938H43.5938V56.2812Z" fill="#C10230"/>
<path d="M57.1875 18.2188H42.6875C42.4471 18.2188 42.2166 18.1233 42.0467 17.9533C41.8767 17.7834 41.7812 17.5529 41.7812 17.3125V2.8125C41.7812 2.57215 41.8767 2.34164 42.0467 2.17168C42.2166 2.00173 42.4471 1.90625 42.6875 1.90625H57.1875C57.4279 1.90625 57.6584 2.00173 57.8283 2.17168C57.9983 2.34164 58.0938 2.57215 58.0938 2.8125V17.3125C58.0938 17.5529 57.9983 17.7834 57.8283 17.9533C57.6584 18.1233 57.4279 18.2188 57.1875 18.2188ZM43.5938 16.4062H56.2812V3.71875H43.5938V16.4062Z" fill="#C10230"/>
<path d="M17.3125 58.0938H2.8125C2.57215 58.0938 2.34164 57.9983 2.17168 57.8283C2.00173 57.6584 1.90625 57.4279 1.90625 57.1875V42.6875C1.90625 42.4471 2.00173 42.2166 2.17168 42.0467C2.34164 41.8767 2.57215 41.7812 2.8125 41.7812H17.3125C17.5529 41.7812 17.7834 41.8767 17.9533 42.0467C18.1233 42.2166 18.2188 42.4471 18.2188 42.6875V57.1875C18.2188 57.4279 18.1233 57.6584 17.9533 57.8283C17.7834 57.9983 17.5529 58.0938 17.3125 58.0938ZM3.71875 56.2812H16.4062V43.5938H3.71875V56.2812Z" fill="#C10230"/>
<path d="M31.8125 12.7812H28.1875C27.9471 12.7812 27.7166 12.6858 27.5467 12.5158C27.3767 12.3459 27.2812 12.1154 27.2812 11.875V8.25C27.2812 8.00965 27.3767 7.77914 27.5467 7.60918C27.7166 7.43923 27.9471 7.34375 28.1875 7.34375H31.8125C32.0529 7.34375 32.2834 7.43923 32.4533 7.60918C32.6233 7.77914 32.7188 8.00965 32.7188 8.25V11.875C32.7188 12.1154 32.6233 12.3459 32.4533 12.5158C32.2834 12.6858 32.0529 12.7812 31.8125 12.7812ZM29.0938 10.9688H30.9062V9.15625H29.0938V10.9688Z" fill="#C10230"/>
<path d="M30 22.75C29.7596 22.75 29.5291 22.6545 29.3592 22.4846C29.1892 22.3146 29.0938 22.0841 29.0938 21.8438V12.7812C29.0938 12.5409 29.1892 12.3104 29.3592 12.1404C29.5291 11.9705 29.7596 11.875 30 11.875C30.2404 11.875 30.4709 11.9705 30.6408 12.1404C30.8108 12.3104 30.9062 12.5409 30.9062 12.7812V21.8438C30.9062 22.0841 30.8108 22.3146 30.6408 22.4846C30.4709 22.6545 30.2404 22.75 30 22.75Z" fill="#C10230"/>
<path d="M41.7812 10.9688H32.7188C32.4784 10.9688 32.2479 10.8733 32.0779 10.7033C31.908 10.5334 31.8125 10.3029 31.8125 10.0625C31.8125 9.82215 31.908 9.59164 32.0779 9.42168C32.2479 9.25173 32.4784 9.15625 32.7188 9.15625H41.7812C42.0216 9.15625 42.2521 9.25173 42.4221 9.42168C42.592 9.59164 42.6875 9.82215 42.6875 10.0625C42.6875 10.3029 42.592 10.5334 42.4221 10.7033C42.2521 10.8733 42.0216 10.9688 41.7812 10.9688Z" fill="#C10230"/>
<path d="M31.8125 52.6562H28.1875C27.9471 52.6562 27.7166 52.5608 27.5467 52.3908C27.3767 52.2209 27.2812 51.9904 27.2812 51.75V48.125C27.2812 47.8846 27.3767 47.6541 27.5467 47.4842C27.7166 47.3142 27.9471 47.2188 28.1875 47.2188H31.8125C32.0529 47.2188 32.2834 47.3142 32.4533 47.4842C32.6233 47.6541 32.7188 47.8846 32.7188 48.125V51.75C32.7188 51.9904 32.6233 52.2209 32.4533 52.3908C32.2834 52.5608 32.0529 52.6562 31.8125 52.6562ZM29.0938 50.8438H30.9062V49.0312H29.0938V50.8438Z" fill="#C10230"/>
<path d="M30 48.125C29.7596 48.125 29.5291 48.0295 29.3592 47.8596C29.1892 47.6896 29.0938 47.4591 29.0938 47.2188V38.1562C29.0938 37.9159 29.1892 37.6854 29.3592 37.5154C29.5291 37.3455 29.7596 37.25 30 37.25C30.2404 37.25 30.4709 37.3455 30.6408 37.5154C30.8108 37.6854 30.9062 37.9159 30.9062 38.1562V47.2188C30.9062 47.4591 30.8108 47.6896 30.6408 47.8596C30.4709 48.0295 30.2404 48.125 30 48.125Z" fill="#C10230"/>
<path d="M27.2812 50.8438H18.2188C17.9784 50.8438 17.7479 50.7483 17.5779 50.5783C17.408 50.4084 17.3125 50.1779 17.3125 49.9375C17.3125 49.6971 17.408 49.4666 17.5779 49.2967C17.7479 49.1267 17.9784 49.0312 18.2188 49.0312H27.2812C27.5216 49.0312 27.7521 49.1267 27.9221 49.2967C28.092 49.4666 28.1875 49.6971 28.1875 49.9375C28.1875 50.1779 28.092 50.4084 27.9221 50.5783C27.7521 50.7483 27.5216 50.8438 27.2812 50.8438Z" fill="#C10230"/>
<path d="M11.875 32.7188H8.25C8.00965 32.7188 7.77914 32.6233 7.60918 32.4533C7.43923 32.2834 7.34375 32.0529 7.34375 31.8125V28.1875C7.34375 27.9471 7.43923 27.7166 7.60918 27.5467C7.77914 27.3767 8.00965 27.2812 8.25 27.2812H11.875C12.1154 27.2812 12.3459 27.3767 12.5158 27.5467C12.6858 27.7166 12.7812 27.9471 12.7812 28.1875V31.8125C12.7812 32.0529 12.6858 32.2834 12.5158 32.4533C12.3459 32.6233 12.1154 32.7188 11.875 32.7188ZM9.15625 30.9062H10.9688V29.0938H9.15625V30.9062Z" fill="#C10230"/>
<path d="M21.8438 30.9062H12.7812C12.5409 30.9062 12.3104 30.8108 12.1404 30.6408C11.9705 30.4709 11.875 30.2404 11.875 30C11.875 29.7596 11.9705 29.5291 12.1404 29.3592C12.3104 29.1892 12.5409 29.0938 12.7812 29.0938H21.8438C22.0841 29.0938 22.3146 29.1892 22.4846 29.3592C22.6545 29.5291 22.75 29.7596 22.75 30C22.75 30.2404 22.6545 30.4709 22.4846 30.6408C22.3146 30.8108 22.0841 30.9062 21.8438 30.9062Z" fill="#C10230"/>
<path d="M10.0625 28.1875C9.82215 28.1875 9.59164 28.092 9.42168 27.9221C9.25173 27.7521 9.15625 27.5216 9.15625 27.2812V18.2188C9.15625 17.9784 9.25173 17.7479 9.42168 17.5779C9.59164 17.408 9.82215 17.3125 10.0625 17.3125C10.3029 17.3125 10.5334 17.408 10.7033 17.5779C10.8733 17.7479 10.9688 17.9784 10.9688 18.2188V27.2812C10.9688 27.5216 10.8733 27.7521 10.7033 27.9221C10.5334 28.092 10.3029 28.1875 10.0625 28.1875Z" fill="#C10230"/>
<path d="M51.75 32.7188H48.125C47.8846 32.7188 47.6541 32.6233 47.4842 32.4533C47.3142 32.2834 47.2188 32.0529 47.2188 31.8125V28.1875C47.2188 27.9471 47.3142 27.7166 47.4842 27.5467C47.6541 27.3767 47.8846 27.2812 48.125 27.2812H51.75C51.9904 27.2812 52.2209 27.3767 52.3908 27.5467C52.5608 27.7166 52.6562 27.9471 52.6562 28.1875V31.8125C52.6562 32.0529 52.5608 32.2834 52.3908 32.4533C52.2209 32.6233 51.9904 32.7188 51.75 32.7188ZM49.0312 30.9062H50.8438V29.0938H49.0312V30.9062Z" fill="#C10230"/>
<path d="M47.2188 30.9062H38.1562C37.9159 30.9062 37.6854 30.8108 37.5154 30.6408C37.3455 30.4709 37.25 30.2404 37.25 30C37.25 29.7596 37.3455 29.5291 37.5154 29.3592C37.6854 29.1892 37.9159 29.0938 38.1562 29.0938H47.2188C47.4591 29.0938 47.6896 29.1892 47.8596 29.3592C48.0295 29.5291 48.125 29.7596 48.125 30C48.125 30.2404 48.0295 30.4709 47.8596 30.6408C47.6896 30.8108 47.4591 30.9062 47.2188 30.9062Z" fill="#C10230"/>
<path d="M49.9375 42.6875C49.6971 42.6875 49.4666 42.592 49.2967 42.4221C49.1267 42.2521 49.0312 42.0216 49.0312 41.7812V32.7188C49.0312 32.4784 49.1267 32.2479 49.2967 32.0779C49.4666 31.908 49.6971 31.8125 49.9375 31.8125C50.1779 31.8125 50.4084 31.908 50.5783 32.0779C50.7483 32.2479 50.8438 32.4784 50.8438 32.7188V41.7812C50.8438 42.0216 50.7483 42.2521 50.5783 42.4221C50.4084 42.592 50.1779 42.6875 49.9375 42.6875Z" fill="#C10230"/>
<path d="M30 32.7188C29.4623 32.7188 28.9366 32.5593 28.4895 32.2606C28.0425 31.9618 27.694 31.5372 27.4882 31.0404C27.2824 30.5436 27.2286 29.997 27.3335 29.4696C27.4384 28.9422 27.6973 28.4578 28.0776 28.0776C28.4578 27.6973 28.9422 27.4384 29.4696 27.3335C29.997 27.2286 30.5436 27.2824 31.0404 27.4882C31.5372 27.694 31.9618 28.0425 32.2606 28.4895C32.5593 28.9366 32.7188 29.4623 32.7188 30C32.7188 30.7211 32.4323 31.4126 31.9225 31.9225C31.4126 32.4323 30.7211 32.7188 30 32.7188ZM30 29.0938C29.8208 29.0938 29.6456 29.1469 29.4965 29.2465C29.3475 29.3461 29.2313 29.4876 29.1627 29.6532C29.0941 29.8188 29.0762 30.001 29.1112 30.1768C29.1461 30.3526 29.2324 30.5141 29.3592 30.6408C29.4859 30.7676 29.6474 30.8539 29.8232 30.8888C29.999 30.9238 30.1812 30.9059 30.3468 30.8373C30.5124 30.7687 30.6539 30.6525 30.7535 30.5035C30.8531 30.3545 30.9063 30.1792 30.9063 30C30.9063 29.7597 30.8108 29.5291 30.6408 29.3592C30.4709 29.1892 30.2404 29.0938 30 29.0938Z" fill="#C10230"/>
<path d="M10.0625 12.7813C9.52478 12.7813 8.99914 12.6218 8.55204 12.3231C8.10495 12.0243 7.75648 11.5997 7.5507 11.1029C7.34493 10.6061 7.29109 10.0595 7.39599 9.5321C7.50089 9.00471 7.75983 8.52028 8.14005 8.14005C8.52028 7.75983 9.00471 7.50089 9.5321 7.39599C10.0595 7.29109 10.6061 7.34493 11.1029 7.5507C11.5997 7.75648 12.0243 8.10495 12.3231 8.55204C12.6218 8.99914 12.7813 9.52478 12.7813 10.0625C12.7813 10.7836 12.4948 11.4751 11.9849 11.9849C11.4751 12.4948 10.7836 12.7813 10.0625 12.7813ZM10.0625 9.15625C9.88326 9.15625 9.70805 9.2094 9.55902 9.30898C9.40998 9.40856 9.29383 9.5501 9.22524 9.71569C9.15664 9.88129 9.1387 10.0635 9.17366 10.2393C9.20863 10.4151 9.29494 10.5766 9.42169 10.7033C9.54843 10.8301 9.70991 10.9164 9.8857 10.9513C10.0615 10.9863 10.2437 10.9684 10.4093 10.8998C10.5749 10.8312 10.7164 10.715 10.816 10.566C10.9156 10.417 10.9688 10.2417 10.9688 10.0625C10.9688 9.82215 10.8733 9.59164 10.7033 9.42169C10.5334 9.25173 10.3029 9.15625 10.0625 9.15625Z" fill="#C10230"/>
<path d="M10.0625 52.6563C9.52478 52.6563 8.99914 52.4968 8.55204 52.1981C8.10495 51.8993 7.75648 51.4747 7.5507 50.9779C7.34493 50.4811 7.29109 49.9345 7.39599 49.4071C7.50089 48.8797 7.75983 48.3953 8.14005 48.0151C8.52028 47.6348 9.00471 47.3759 9.5321 47.271C10.0595 47.1661 10.6061 47.2199 11.1029 47.4257C11.5997 47.6315 12.0243 47.9799 12.3231 48.427C12.6218 48.8741 12.7813 49.3998 12.7813 49.9375C12.7813 50.6586 12.4948 51.3501 11.9849 51.86C11.4751 52.3698 10.7836 52.6563 10.0625 52.6563ZM10.0625 49.0313C9.88326 49.0313 9.70805 49.0844 9.55902 49.184C9.40998 49.2836 9.29383 49.4251 9.22524 49.5907C9.15664 49.7563 9.1387 49.9385 9.17366 50.1143C9.20863 50.2901 9.29494 50.4516 9.42169 50.5783C9.54843 50.7051 9.70991 50.7914 9.8857 50.8263C10.0615 50.8613 10.2437 50.8434 10.4093 50.7748C10.5749 50.7062 10.7164 50.59 10.816 50.441C10.9156 50.292 10.9688 50.1167 10.9688 49.9375C10.9688 49.6972 10.8733 49.4666 10.7033 49.2967C10.5334 49.1267 10.3029 49.0313 10.0625 49.0313Z" fill="#C10230"/>
<path d="M49.9375 12.7813C49.3998 12.7813 48.8741 12.6218 48.427 12.3231C47.9799 12.0243 47.6315 11.5997 47.4257 11.1029C47.2199 10.6061 47.1661 10.0595 47.271 9.5321C47.3759 9.00471 47.6348 8.52028 48.0151 8.14005C48.3953 7.75983 48.8797 7.50089 49.4071 7.39599C49.9345 7.29109 50.4811 7.34493 50.9779 7.5507C51.4747 7.75648 51.8993 8.10495 52.1981 8.55204C52.4968 8.99914 52.6563 9.52478 52.6563 10.0625C52.6563 10.7836 52.3698 11.4751 51.86 11.9849C51.3501 12.4948 50.6586 12.7813 49.9375 12.7813ZM49.9375 9.15625C49.7583 9.15625 49.5831 9.2094 49.434 9.30898C49.285 9.40856 49.1688 9.5501 49.1002 9.71569C49.0316 9.88129 49.0137 10.0635 49.0487 10.2393C49.0836 10.4151 49.1699 10.5766 49.2967 10.7033C49.4234 10.8301 49.5849 10.9164 49.7607 10.9513C49.9365 10.9863 50.1187 10.9684 50.2843 10.8998C50.4499 10.8312 50.5914 10.715 50.691 10.566C50.7906 10.417 50.8438 10.2417 50.8438 10.0625C50.8438 9.82215 50.7483 9.59164 50.5783 9.42169C50.4084 9.25173 50.1779 9.15625 49.9375 9.15625Z" fill="#C10230"/>
<path d="M49.9375 52.6563C49.3998 52.6563 48.8741 52.4968 48.427 52.1981C47.9799 51.8993 47.6315 51.4747 47.4257 50.9779C47.2199 50.4811 47.1661 49.9345 47.271 49.4071C47.3759 48.8797 47.6348 48.3953 48.0151 48.0151C48.3953 47.6348 48.8797 47.3759 49.4071 47.271C49.9345 47.1661 50.4811 47.2199 50.9779 47.4257C51.4747 47.6315 51.8993 47.9799 52.1981 48.427C52.4968 48.8741 52.6563 49.3998 52.6563 49.9375C52.6563 50.6586 52.3698 51.3501 51.86 51.86C51.3501 52.3698 50.6586 52.6563 49.9375 52.6563ZM49.9375 49.0313C49.7583 49.0313 49.5831 49.0844 49.434 49.184C49.285 49.2836 49.1688 49.4251 49.1002 49.5907C49.0316 49.7563 49.0137 49.9385 49.0487 50.1143C49.0836 50.2901 49.1699 50.4516 49.2967 50.5783C49.4234 50.7051 49.5849 50.7914 49.7607 50.8263C49.9365 50.8613 50.1187 50.8434 50.2843 50.7748C50.4499 50.7062 50.5914 50.59 50.691 50.441C50.7906 50.292 50.8438 50.1167 50.8438 49.9375C50.8438 49.6972 50.7483 49.4666 50.5783 49.2967C50.4084 49.1267 50.1779 49.0313 49.9375 49.0313Z" fill="#C10230"/>
<path d="M50.8438 55.375H45.4062C45.1659 55.375 44.9354 55.2795 44.7654 55.1096C44.5955 54.9396 44.5 54.7091 44.5 54.4688C44.5 54.2284 44.5955 53.9979 44.7654 53.8279C44.9354 53.658 45.1659 53.5625 45.4062 53.5625H50.8438C51.0841 53.5625 51.3146 53.658 51.4846 53.8279C51.6545 53.9979 51.75 54.2284 51.75 54.4688C51.75 54.7091 51.6545 54.9396 51.4846 55.1096C51.3146 55.2795 51.0841 55.375 50.8438 55.375Z" fill="#C10230"/>
<path d="M54.4688 55.375H53.5625C53.3221 55.375 53.0916 55.2795 52.9217 55.1096C52.7517 54.9396 52.6562 54.7091 52.6562 54.4688C52.6562 54.2284 52.7517 53.9979 52.9217 53.8279C53.0916 53.658 53.3221 53.5625 53.5625 53.5625H54.4688C54.7091 53.5625 54.9396 53.658 55.1096 53.8279C55.2795 53.9979 55.375 54.2284 55.375 54.4688C55.375 54.7091 55.2795 54.9396 55.1096 55.1096C54.9396 55.2795 54.7091 55.375 54.4688 55.375Z" fill="#C10230"/>
</svg>
