<svg width="56" height="21" viewBox="0 0 56 21" fill="none" xmlns="http://www.w3.org/2000/svg">
<path d="M32.4679 0L27.2734 10.5L22.4887 0H18.1996L24.9191 15.1094H29.294L32.4822 8.91445L32.4393 21H36.3996V0H32.4679Z" fill="white"/>
<path d="M12.5201 0.112641L12.5656 0L10.2908 0.0244875L8.01612 0L8.06161 0.112641L5.59985 6.41558C5.59985 6.41558 6.11546 5.16675 7.99084 5.08839C9.95216 5.00513 10.8519 7.29221 10.8519 7.29221L17.2111 21H21.6999L12.5201 0.112641Z" fill="white"/>
<path d="M2.36377 15.4004L0 21.0004H4.50435L7 15.4004H2.36377Z" fill="#C10230"/>
<path d="M48.6293 17.554H45.8766V11.1431H47.3261C48.889 11.1431 50.0553 11.3836 50.7872 11.8548C51.6182 12.3997 52.0243 13.3324 52.0243 14.7118C52.0243 16.0323 51.6371 17.554 48.6293 17.554ZM53.5541 9.38079C52.1234 8.26157 50.2583 7.69706 48.0108 7.69706H45.8813V3.64727H54.7015V0H42V21H48.5916C50.7211 21 52.2084 20.7595 53.1292 20.2735C55.032 19.2917 56 17.4558 56 14.81C56 12.4881 55.1784 10.662 53.5541 9.38079Z" fill="white"/>
</svg>
