<svg width="29" height="28" viewBox="0 0 29 28" fill="none" xmlns="http://www.w3.org/2000/svg">
<path fill-rule="evenodd" clip-rule="evenodd" d="M21.5745 9.95272L10.2616 21.2659C10.1375 21.3896 10.0876 21.5697 10.1298 21.7396C10.6601 23.8218 9.8069 26.0104 8.00736 27.1843C6.20794 28.3582 3.861 28.2569 2.16912 26.9328C0.477235 25.6088 -0.184808 23.3548 0.522105 21.3261C1.2294 19.2972 3.14883 17.943 5.29703 17.9571C5.70387 17.9587 6.10892 18.0112 6.50277 18.1123C6.6729 18.154 6.85251 18.104 6.97663 17.981L18.2894 6.66855C18.4135 6.54457 18.4631 6.36483 18.4205 6.19457C18.0269 4.65676 18.3926 3.02313 19.4045 1.79979C20.4166 0.57671 21.9527 -0.088982 23.5372 0.00959161L20.906 2.64074C20.7723 2.77432 20.7257 2.97211 20.7855 3.15108L21.7829 6.14387C21.8327 6.29276 21.9496 6.40964 22.0986 6.45899L25.0913 7.4567C25.2705 7.51648 25.4683 7.46969 25.6016 7.33623L28.2329 4.70528C28.2389 4.80046 28.2417 4.89481 28.2417 4.98845C28.2498 6.52601 27.5446 7.98054 26.3321 8.9264C25.1199 9.87219 23.5378 10.203 22.0483 9.82124C21.8783 9.77893 21.6985 9.82867 21.5745 9.95272ZM4.0833 24.9404H6.51115L7.70831 22.9453L6.51115 20.9499H4.0833L2.88589 22.9453L4.0833 24.9404ZM19.4096 8.12738L8.43615 19.1009L9.14134 19.8062L20.1148 8.83269L19.4096 8.12738ZM4.1537 5.13471C4.08989 5.07096 4.00981 5.02558 3.92231 5.00362L2.13365 4.55672L0.432617 1.58018L1.8892 0.123657L4.86369 1.82418L5.31239 3.61284C5.33447 3.7006 5.37966 3.78093 5.44361 3.84481L12.573 10.9742L11.2829 12.2641L4.1537 5.13471ZM24.1523 27.7399C25.2633 28.1576 26.5158 27.8867 27.3552 27.0474C28.1945 26.2079 28.4655 24.9551 28.0476 23.8444L24.1523 27.7399ZM21.7521 17.1592L27.3544 22.7637C27.4155 22.8247 27.4723 22.8889 27.5272 22.9541L23.2623 27.219C23.1972 27.1639 23.1328 27.1073 23.0717 27.0463L17.4741 21.4458C17.9928 20.8272 17.9522 19.9148 17.3811 19.3444C16.8102 18.7741 15.8976 18.7347 15.2796 19.2542L14.4814 18.456L18.7641 14.1732L19.5575 14.9676C19.039 15.5861 19.0793 16.4984 19.6505 17.0687C20.2216 17.6392 21.1342 17.6787 21.7521 17.1592ZM19.4091 19.8062L24.397 24.7941L25.1024 24.089L20.1143 19.1009L19.4091 19.8062Z" fill="white"/>
</svg>
